# Exported from Wings 3D 1.0.2
mtllib MCU-43 Gryphon.mtl
o cylinder29_copy41
#12 vertices, 8 faces
v -2.15273358 0.94560998 2.92646432
v -2.10877223 0.86946669 2.92646432
v -2.02084952 0.86946669 2.92646432
v -1.97688817 0.94560998 2.92646432
v -2.02084952 1.02175328 2.92646432
v -2.10877223 1.02175328 2.92646432
v -2.15273358 0.94560998 0.46512733
v -2.10877223 0.86946669 0.46512733
v -2.02084952 0.86946669 0.46512733
v -1.97688817 0.94560998 0.46512733
v -2.02084952 1.02175328 0.46512733
v -2.10877223 1.02175328 0.46512733
vn -0.86602540 -4.4408921e-16 0.50000000
vn -0.43301270 -0.75000000 0.50000000
vn 0.43301270 -0.75000000 0.50000000
vn 0.86602540 -4.4408921e-16 0.50000000
vn 0.43301270 0.75000000 0.50000000
vn -0.43301270 0.75000000 0.50000000
vn -0.86602540 -4.4408921e-16 -0.50000000
vn -0.43301270 -0.75000000 -0.50000000
vn 0.43301270 -0.75000000 -0.50000000
vn 0.86602540 -4.4408921e-16 -0.50000000
vn 0.43301270 0.75000000 -0.50000000
vn -0.43301270 0.75000000 -0.50000000
g cylinder29_copy41_default
usemtl default
f 1//1 7//7 8//8 2//2
f 2//2 3//3 4//4 5//5 6//6 1//1
f 2//2 8//8 9//9 3//3
f 3//3 9//9 10//10 4//4
f 4//4 10//10 11//11 5//5
f 5//5 11//11 12//12 6//6
f 6//6 12//12 7//7 1//1
f 7//7 12//12 11//11 10//10 9//9 8//8
o cylinder29_copy40
#12 vertices, 8 faces
v -2.35273358 0.94560998 2.92646432
v -2.30877223 0.86946669 2.92646432
v -2.22084952 0.86946669 2.92646432
v -2.17688817 0.94560998 2.92646432
v -2.22084952 1.02175328 2.92646432
v -2.30877223 1.02175328 2.92646432
v -2.35273358 0.94560998 0.46512733
v -2.30877223 0.86946669 0.46512733
v -2.22084952 0.86946669 0.46512733
v -2.17688817 0.94560998 0.46512733
v -2.22084952 1.02175328 0.46512733
v -2.30877223 1.02175328 0.46512733
vn -0.86602540 -4.4408921e-16 0.50000000
vn -0.43301270 -0.75000000 0.50000000
vn 0.43301270 -0.75000000 0.50000000
vn 0.86602540 -4.4408921e-16 0.50000000
vn 0.43301270 0.75000000 0.50000000
vn -0.43301270 0.75000000 0.50000000
vn -0.86602540 -4.4408921e-16 -0.50000000
vn -0.43301270 -0.75000000 -0.50000000
vn 0.43301270 -0.75000000 -0.50000000
vn 0.86602540 -4.4408921e-16 -0.50000000
vn 0.43301270 0.75000000 -0.50000000
vn -0.43301270 0.75000000 -0.50000000
g cylinder29_copy40_default
usemtl default
f 13//13 19//19 20//20 14//14
f 14//14 15//15 16//16 17//17 18//18 13//13
f 14//14 20//20 21//21 15//15
f 15//15 21//21 22//22 16//16
f 16//16 22//22 23//23 17//17
f 17//17 23//23 24//24 18//18
f 18//18 24//24 19//19 13//13
f 19//19 24//24 23//23 22//22 21//21 20//20
o cylinder29_copy39
#12 vertices, 8 faces
v -2.15273358 1.34560998 2.92646432
v -2.10877223 1.26946669 2.92646432
v -2.02084952 1.26946669 2.92646432
v -1.97688817 1.34560998 2.92646432
v -2.02084952 1.42175328 2.92646432
v -2.10877223 1.42175328 2.92646432
v -2.15273358 1.34560998 0.46512733
v -2.10877223 1.26946669 0.46512733
v -2.02084952 1.26946669 0.46512733
v -1.97688817 1.34560998 0.46512733
v -2.02084952 1.42175328 0.46512733
v -2.10877223 1.42175328 0.46512733
vn -0.86602540 -4.4408921e-16 0.50000000
vn -0.43301270 -0.75000000 0.50000000
vn 0.43301270 -0.75000000 0.50000000
vn 0.86602540 -4.4408921e-16 0.50000000
vn 0.43301270 0.75000000 0.50000000
vn -0.43301270 0.75000000 0.50000000
vn -0.86602540 -4.4408921e-16 -0.50000000
vn -0.43301270 -0.75000000 -0.50000000
vn 0.43301270 -0.75000000 -0.50000000
vn 0.86602540 -4.4408921e-16 -0.50000000
vn 0.43301270 0.75000000 -0.50000000
vn -0.43301270 0.75000000 -0.50000000
g cylinder29_copy39_default
usemtl default
f 25//25 31//31 32//32 26//26
f 26//26 27//27 28//28 29//29 30//30 25//25
f 26//26 32//32 33//33 27//27
f 27//27 33//33 34//34 28//28
f 28//28 34//34 35//35 29//29
f 29//29 35//35 36//36 30//30
f 30//30 36//36 31//31 25//25
f 31//31 36//36 35//35 34//34 33//33 32//32
o cylinder29_copy38
#12 vertices, 8 faces
v -2.35273358 1.34560998 2.92646432
v -2.30877223 1.26946669 2.92646432
v -2.22084952 1.26946669 2.92646432
v -2.17688817 1.34560998 2.92646432
v -2.22084952 1.42175328 2.92646432
v -2.30877223 1.42175328 2.92646432
v -2.35273358 1.34560998 0.46512733
v -2.30877223 1.26946669 0.46512733
v -2.22084952 1.26946669 0.46512733
v -2.17688817 1.34560998 0.46512733
v -2.22084952 1.42175328 0.46512733
v -2.30877223 1.42175328 0.46512733
vn -0.86602540 -4.4408921e-16 0.50000000
vn -0.43301270 -0.75000000 0.50000000
vn 0.43301270 -0.75000000 0.50000000
vn 0.86602540 -4.4408921e-16 0.50000000
vn 0.43301270 0.75000000 0.50000000
vn -0.43301270 0.75000000 0.50000000
vn -0.86602540 -4.4408921e-16 -0.50000000
vn -0.43301270 -0.75000000 -0.50000000
vn 0.43301270 -0.75000000 -0.50000000
vn 0.86602540 -4.4408921e-16 -0.50000000
vn 0.43301270 0.75000000 -0.50000000
vn -0.43301270 0.75000000 -0.50000000
g cylinder29_copy38_default
usemtl default
f 37//37 43//43 44//44 38//38
f 38//38 39//39 40//40 41//41 42//42 37//37
f 38//38 44//44 45//45 39//39
f 39//39 45//45 46//46 40//40
f 40//40 46//46 47//47 41//41
f 41//41 47//47 48//48 42//42
f 42//42 48//48 43//43 37//37
f 43//43 48//48 47//47 46//46 45//45 44//44
o cylinder29_copy37
#12 vertices, 8 faces
v -2.45273358 1.14560998 2.92646432
v -2.40877223 1.06946669 2.92646432
v -2.32084952 1.06946669 2.92646432
v -2.27688817 1.14560998 2.92646432
v -2.32084952 1.22175328 2.92646432
v -2.40877223 1.22175328 2.92646432
v -2.45273358 1.14560998 0.46512733
v -2.40877223 1.06946669 0.46512733
v -2.32084952 1.06946669 0.46512733
v -2.27688817 1.14560998 0.46512733
v -2.32084952 1.22175328 0.46512733
v -2.40877223 1.22175328 0.46512733
vn -0.86602540 -1.7763568e-15 0.50000000
vn -0.43301270 -0.75000000 0.50000000
vn 0.43301270 -0.75000000 0.50000000
vn 0.86602540 -1.7763568e-15 0.50000000
vn 0.43301270 0.75000000 0.50000000
vn -0.43301270 0.75000000 0.50000000
vn -0.86602540 -1.7763568e-15 -0.50000000
vn -0.43301270 -0.75000000 -0.50000000
vn 0.43301270 -0.75000000 -0.50000000
vn 0.86602540 -1.7763568e-15 -0.50000000
vn 0.43301270 0.75000000 -0.50000000
vn -0.43301270 0.75000000 -0.50000000
g cylinder29_copy37_default
usemtl default
f 49//49 55//55 56//56 50//50
f 50//50 51//51 52//52 53//53 54//54 49//49
f 50//50 56//56 57//57 51//51
f 51//51 57//57 58//58 52//52
f 52//52 58//58 59//59 53//53
f 53//53 59//59 60//60 54//54
f 54//54 60//60 55//55 49//49
f 55//55 60//60 59//59 58//58 57//57 56//56
o cylinder29_copy36
#12 vertices, 8 faces
v -2.05273358 1.14560998 2.92646432
v -2.00877223 1.06946669 2.92646432
v -1.92084952 1.06946669 2.92646432
v -1.87688817 1.14560998 2.92646432
v -1.92084952 1.22175328 2.92646432
v -2.00877223 1.22175328 2.92646432
v -2.05273358 1.14560998 0.46512733
v -2.00877223 1.06946669 0.46512733
v -1.92084952 1.06946669 0.46512733
v -1.87688817 1.14560998 0.46512733
v -1.92084952 1.22175328 0.46512733
v -2.00877223 1.22175328 0.46512733
vn -0.86602540 -1.7763568e-15 0.50000000
vn -0.43301270 -0.75000000 0.50000000
vn 0.43301270 -0.75000000 0.50000000
vn 0.86602540 -1.7763568e-15 0.50000000
vn 0.43301270 0.75000000 0.50000000
vn -0.43301270 0.75000000 0.50000000
vn -0.86602540 -1.7763568e-15 -0.50000000
vn -0.43301270 -0.75000000 -0.50000000
vn 0.43301270 -0.75000000 -0.50000000
vn 0.86602540 -1.7763568e-15 -0.50000000
vn 0.43301270 0.75000000 -0.50000000
vn -0.43301270 0.75000000 -0.50000000
g cylinder29_copy36_default
usemtl default
f 61//61 67//67 68//68 62//62
f 62//62 63//63 64//64 65//65 66//66 61//61
f 62//62 68//68 69//69 63//63
f 63//63 69//69 70//70 64//64
f 64//64 70//70 71//71 65//65
f 65//65 71//71 72//72 66//66
f 66//66 72//72 67//67 61//61
f 67//67 72//72 71//71 70//70 69//69 68//68
o cylinder29_copy35
#12 vertices, 8 faces
v -2.51723475 1.14560998 2.80065511
v -2.34102281 0.84040196 2.80065511
v -1.98859894 0.84040196 2.80065511
v -1.81238700 1.14560998 2.80065511
v -1.98859894 1.45081801 2.80065511
v -2.34102281 1.45081801 2.80065511
v -2.51723475 1.14560998 2.65937291
v -2.34102281 0.84040196 2.65937291
v -1.98859894 0.84040196 2.65937291
v -1.81238700 1.14560998 2.65937291
v -1.98859894 1.45081801 2.65937291
v -2.34102281 1.45081801 2.65937291
vn -0.86602540 8.6042284e-16 0.50000000
vn -0.43301270 -0.75000000 0.50000000
vn 0.43301270 -0.75000000 0.50000000
vn 0.86602540 5.5511151e-17 0.50000000
vn 0.43301270 0.75000000 0.50000000
vn -0.43301270 0.75000000 0.50000000
vn -0.86602540 8.6042284e-16 -0.50000000
vn -0.43301270 -0.75000000 -0.50000000
vn 0.43301270 -0.75000000 -0.50000000
vn 0.86602540 5.5511151e-17 -0.50000000
vn 0.43301270 0.75000000 -0.50000000
vn -0.43301270 0.75000000 -0.50000000
g cylinder29_copy35_default
usemtl default
f 73//73 79//79 80//80 74//74
f 74//74 75//75 76//76 77//77 78//78 73//73
f 74//74 80//80 81//81 75//75
f 75//75 81//81 82//82 76//76
f 76//76 82//82 83//83 77//77
f 77//77 83//83 84//84 78//78
f 78//78 84//84 79//79 73//73
f 79//79 84//84 83//83 82//82 81//81 80//80
o cylinder29_copy34
#12 vertices, 8 faces
v -2.51723475 1.14560998 2.42654765
v -2.34102281 0.84040196 2.42654765
v -1.98859894 0.84040196 2.42654765
v -1.81238700 1.14560998 2.42654765
v -1.98859894 1.45081801 2.42654765
v -2.34102281 1.45081801 2.42654765
v -2.51723475 1.14560998 2.28526545
v -2.34102281 0.84040196 2.28526545
v -1.98859894 0.84040196 2.28526545
v -1.81238700 1.14560998 2.28526545
v -1.98859894 1.45081801 2.28526545
v -2.34102281 1.45081801 2.28526545
vn -0.86602540 8.6042284e-16 0.50000000
vn -0.43301270 -0.75000000 0.50000000
vn 0.43301270 -0.75000000 0.50000000
vn 0.86602540 5.5511151e-17 0.50000000
vn 0.43301270 0.75000000 0.50000000
vn -0.43301270 0.75000000 0.50000000
vn -0.86602540 8.6042284e-16 -0.50000000
vn -0.43301270 -0.75000000 -0.50000000
vn 0.43301270 -0.75000000 -0.50000000
vn 0.86602540 5.5511151e-17 -0.50000000
vn 0.43301270 0.75000000 -0.50000000
vn -0.43301270 0.75000000 -0.50000000
g cylinder29_copy34_default
usemtl default
f 85//85 91//91 92//92 86//86
f 86//86 87//87 88//88 89//89 90//90 85//85
f 86//86 92//92 93//93 87//87
f 87//87 93//93 94//94 88//88
f 88//88 94//94 95//95 89//89
f 89//89 95//95 96//96 90//90
f 90//90 96//96 91//91 85//85
f 91//91 96//96 95//95 94//94 93//93 92//92
o cylinder29_copy33
#12 vertices, 8 faces
v -2.51723475 1.14560998 0.49812954
v -2.34102281 0.84040196 0.49812954
v -1.98859894 0.84040196 0.49812954
v -1.81238700 1.14560998 0.49812954
v -1.98859894 1.45081801 0.49812954
v -2.34102281 1.45081801 0.49812954
v -2.51723475 1.14560998 6.6031731e-2
v -2.34102281 0.84040196 6.6031731e-2
v -1.98859894 0.84040196 6.6031731e-2
v -1.81238700 1.14560998 6.6031731e-2
v -1.98859894 1.45081801 6.6031731e-2
v -2.34102281 1.45081801 6.6031731e-2
vn -0.86602540 6.3837824e-16 0.50000000
vn -0.43301270 -0.75000000 0.50000000
vn 0.43301270 -0.75000000 0.50000000
vn 0.86602540 -1.1102230e-16 0.50000000
vn 0.43301270 0.75000000 0.50000000
vn -0.43301270 0.75000000 0.50000000
vn -0.86602540 6.3837824e-16 -0.50000000
vn -0.43301270 -0.75000000 -0.50000000
vn 0.43301270 -0.75000000 -0.50000000
vn 0.86602540 -1.1102230e-16 -0.50000000
vn 0.43301270 0.75000000 -0.50000000
vn -0.43301270 0.75000000 -0.50000000
g cylinder29_copy33_default
usemtl default
f 97//97 103//103 104//104 98//98
f 98//98 99//99 100//100 101//101 102//102 97//97
f 98//98 104//104 105//105 99//99
f 99//99 105//105 106//106 100//100
f 100//100 106//106 107//107 101//101
f 101//101 107//107 108//108 102//102
f 102//102 108//108 103//103 97//97
f 103//103 108//108 107//107 106//106 105//105 104//104
o cube24_copy32
#32 vertices, 30 faces
v -1.28950116 1.26898753 -4.6144099e-2
v -1.28950116 1.40498753 -4.6144099e-2
v -1.42550116 1.40498753 -4.6144099e-2
v -1.42550116 1.26898753 -4.6144099e-2
v -1.28950116 1.26898753 -0.45781192
v -1.28950116 1.40498753 -0.45781192
v -1.42550116 1.40498753 -0.45781192
v -1.42550116 1.26898753 -0.45781192
v -1.51921155 1.01615013 -4.6144099e-2
v -1.39291986 0.96568819 -4.6144099e-2
v -1.39291986 0.96568819 -0.45781192
v -1.51921155 1.01615013 -0.45781192
v -1.63204760 0.86371939 -4.6144099e-2
v -1.54532136 0.75895985 -4.6144099e-2
v -1.54532136 0.75895985 -0.45781192
v -1.63204760 0.86371939 -0.45781192
v -1.77795964 0.80678490 -4.6144099e-2
v -1.77672536 0.67079050 -4.6144099e-2
v -1.77672536 0.67079050 -0.45781192
v -1.77795964 0.80678490 -0.45781192
v -1.94840672 0.79892665 -4.6144099e-2
v -2.00450244 0.67503448 -4.6144099e-2
v -2.00450244 0.67503448 -0.45781192
v -1.94840672 0.79892665 -0.45781192
v -2.06451989 0.86868542 -4.6144099e-2
v -2.17119061 0.78432098 -4.6144099e-2
v -2.17119061 0.78432098 -0.45781192
v -2.06451989 0.86868542 -0.45781192
v -2.17304045 1.11061656 -4.6144099e-2
v -2.27971116 1.02625212 -4.6144099e-2
v -2.27971116 1.02625212 -0.45781192
v -2.17304045 1.11061656 -0.45781192
vn 0.69283796 -0.11487436 0.71188443
vn 0.57735027 0.57735027 0.57735027
vn -0.57735027 0.57735027 0.57735027
vn -0.69046999 0.12384000 0.71268145
vn 0.69283796 -0.11487436 -0.71188443
vn 0.57735027 0.57735027 -0.57735027
vn -0.57735027 0.57735027 -0.57735027
vn -0.69046999 0.12384000 -0.71268145
vn -0.61875234 0.33488596 0.71063137
vn 0.62285803 -0.32580355 0.71126643
vn 0.62285803 -0.32580355 -0.71126643
vn -0.61875234 0.33488596 -0.71063137
vn -0.42084352 0.55038972 0.72108383
vn 0.41886775 -0.55123919 0.72158518
vn 0.41886775 -0.55123919 -0.72158518
vn -0.42084352 0.55038972 -0.72108383
vn -0.14576378 0.68708314 0.71180733
vn 0.12038970 -0.69014406 0.71358776
vn 0.12038970 -0.69014406 -0.71358776
vn -0.14576378 0.68708314 -0.71180733
vn 0.16937596 0.67042425 0.72238709
vn -0.20440260 -0.66200189 0.72109158
vn -0.20440260 -0.66200189 -0.72109158
vn 0.16937596 0.67042425 -0.72238709
vn 0.51636786 0.45814968 0.72350750
vn -0.52691380 -0.44930256 0.72144928
vn -0.52691380 -0.44930256 -0.72144928
vn 0.51636786 0.45814968 -0.72350750
vn 0.18436184 0.75339847 0.63119051
vn -0.82046023 0.20077232 0.53529010
vn -0.82046023 0.20077232 -0.53529010
vn 0.18436184 0.75339847 -0.63119051
g cube24_copy32_default
usemtl default
f 109//109 113//113 114//114 110//110
f 109//109 118//118 119//119 113//113
f 110//110 111//111 112//112 109//109
f 110//110 114//114 115//115 111//111
f 111//111 115//115 116//116 112//112
f 112//112 117//117 118//118 109//109
f 113//113 116//116 115//115 114//114
f 113//113 119//119 120//120 116//116
f 116//116 120//120 117//117 112//112
f 117//117 121//121 122//122 118//118
f 118//118 122//122 123//123 119//119
f 119//119 123//123 124//124 120//120
f 120//120 124//124 121//121 117//117
f 121//121 125//125 126//126 122//122
f 122//122 126//126 127//127 123//123
f 123//123 127//127 128//128 124//124
f 124//124 128//128 125//125 121//121
f 125//125 129//129 130//130 126//126
f 126//126 130//130 131//131 127//127
f 127//127 131//131 132//132 128//128
f 128//128 132//132 129//129 125//125
f 129//129 133//133 134//134 130//130
f 130//130 134//134 135//135 131//131
f 131//131 135//135 136//136 132//132
f 132//132 136//136 133//133 129//129
f 133//133 137//137 138//138 134//134
f 134//134 138//138 139//139 135//135
f 135//135 139//139 140//140 136//136
f 136//136 140//140 137//137 133//133
f 137//137 140//140 139//139 138//138
o cube9_copy31
#36 vertices, 34 faces
v -1.84961537 1.27008413 4.8135204e-2
v -1.92919012 1.68661321 -4.0118771e-2
v -2.40977957 1.68661321 -4.0118771e-2
v -2.49517686 1.27008413 4.8135204e-2
v -1.80601358 1.27008413 -0.87748572
v -1.88558832 1.68661321 -0.82368024
v -2.44677504 1.68661321 -0.82368024
v -2.53217233 1.27008413 -0.87748572
v -2.53217233 1.27008413 -0.67089253
v -1.80601358 1.27008413 -0.67089253
v -1.88558832 0.96119522 -0.58701929
v -2.44677504 0.96119522 -0.58701929
v -2.40977957 0.96119522 4.8135204e-2
v -1.92919012 0.96119522 4.8135204e-2
v -2.44677504 1.68661321 -0.62219054
v -1.88558832 1.68661321 -0.62219054
v -2.16618168 1.68661321 -0.53695299
v -2.16618168 0.96119522 4.8135204e-2
v -2.16618168 0.96119522 -0.68259703
v -2.16909295 1.27008413 -0.76647027
v -2.16618168 1.68661321 -0.91925798
v -2.16909295 1.27008413 -0.97306345
v -2.16618168 1.68661321 -4.0118771e-2
v -2.16909295 1.27008413 4.8135204e-2
v -2.16618168 1.68661321 -0.28524866
v -2.16618168 0.96119522 -0.16596934
v -1.88558832 0.96119522 -0.13796506
v -2.44677504 0.96119522 -0.13796506
v -2.53217233 1.27008413 -0.16253992
v -2.44677504 1.68661321 -0.21066580
v -1.88558832 1.68661321 -0.21066580
v -1.80601358 1.27008413 -0.16253992
v -1.70964622 2.11782726 -0.21066580
v -1.70964622 2.53374801 -0.28524866
v -1.70964622 2.53374801 -0.53695299
v -1.70964622 2.11782726 -0.62219054
vn 0.61892772 6.1383919e-2 0.78304565
vn 0.45540798 0.68188281 0.57239795
vn -0.45981278 0.68943988 0.55968281
vn -0.63037974 5.8854208e-2 0.77405269
vn 0.73745897 -0.38745869 -0.55319981
vn 0.61081133 0.64572904 -0.45819595
vn -0.60679888 0.65110093 -0.45591962
vn -0.73967781 -0.37948550 -0.55575848
vn -0.90808442 -0.32763511 -0.26084078
vn 0.90810531 -0.32792601 -0.26040215
vn 0.57042199 -0.70440240 -0.42241686
vn -0.56503805 -0.71046795 -0.41948456
vn -0.48336171 -0.63864915 0.59873928
vn 0.48121728 -0.62681115 0.61281131
vn -0.63212200 0.77486887 -5.9603612e-16
vn 0.86506694 0.39105157 -0.31422580
vn -0.30608187 0.92223185 -0.23622509
vn 0.0000000e+0 -0.70710678 0.70710678
vn 1.2688474e-4 -0.81368952 -0.58129970
vn 1.2688474e-4 -0.81368952 -0.58129970
vn 5.5831151e-5 0.77178820 -0.63587968
vn 6.5373610e-5 -0.66755337 -0.74456195
vn 1.6277577e-16 0.77694206 0.62957211
vn 6.8296264e-19 0.10420629 0.99455570
vn -0.29870193 0.92329706 0.24145328
vn 0.0000000e+0 -1.00000000 0.0000000e+0
vn 0.60944448 -0.79005198 6.6297013e-2
vn -0.60361201 -0.79531718 5.5884955e-2
vn -0.99528947 -2.4533571e-2 9.3792148e-2
vn -0.62240460 0.78041787 5.9669581e-2
vn 0.84131974 0.38336975 0.38106264
vn 0.99371596 -2.0798857e-2 0.10998184
vn 0.85904864 -0.12300445 0.49689571
vn -0.14916471 0.54072458 0.82786884
vn -0.18031511 0.55465282 -0.81230949
vn 0.85833828 -0.11606202 -0.49978497
g cube9_copy31_default
usemtl default
f 141//141 154//154 167//167 172//172
f 141//141 172//172 171//171 142//142
f 142//142 163//163 164//164 141//141
f 142//142 171//171 165//165 163//163
f 143//143 163//163 165//165 170//170
f 143//143 170//170 169//169 144//144
f 144//144 164//164 163//163 143//143
f 145//145 150//150 160//160 162//162
f 145//145 162//162 161//161 146//146
f 146//146 156//156 150//150 145//145
f 147//147 161//161 162//162 148//148
f 148//148 149//149 155//155 147//147
f 148//148 162//162 160//160 149//149
f 149//149 169//169 170//170 155//155
f 150//150 172//172 167//167 151//151
f 151//151 159//159 160//160 150//150
f 152//152 168//168 169//169 149//149
f 153//153 158//158 164//164 144//144
f 155//155 157//157 161//161 147//147
f 155//155 170//170 165//165 157//157
f 156//156 171//171 172//172 150//150
f 156//156 176//176 173//173 171//171
f 157//157 175//175 176//176 156//156
f 158//158 166//166 167//167 154//154
f 159//159 166//166 168//168 152//152
f 160//160 159//159 152//152 149//149
f 161//161 157//157 156//156 146//146
f 164//164 158//158 154//154 141//141
f 165//165 174//174 175//175 157//157
f 167//167 166//166 159//159 151//151
f 168//168 166//166 158//158 153//153
f 169//169 168//168 153//153 144//144
f 171//171 173//173 174//174 165//165
f 173//173 176//176 175//175 174//174
o cylinder29_copy37
#12 vertices, 8 faces
v 2.34198739 0.94560998 2.92646432
v 2.29802603 0.86946669 2.92646432
v 2.21010333 0.86946669 2.92646432
v 2.16614197 0.94560998 2.92646432
v 2.21010333 1.02175328 2.92646432
v 2.29802603 1.02175328 2.92646432
v 2.34198739 0.94560998 0.46512733
v 2.29802603 0.86946669 0.46512733
v 2.21010333 0.86946669 0.46512733
v 2.16614197 0.94560998 0.46512733
v 2.21010333 1.02175328 0.46512733
v 2.29802603 1.02175328 0.46512733
vn 0.86602540 -4.4408921e-16 0.50000000
vn 0.43301270 -0.75000000 0.50000000
vn -0.43301270 -0.75000000 0.50000000
vn -0.86602540 -4.4408921e-16 0.50000000
vn -0.43301270 0.75000000 0.50000000
vn 0.43301270 0.75000000 0.50000000
vn 0.86602540 -4.4408921e-16 -0.50000000
vn 0.43301270 -0.75000000 -0.50000000
vn -0.43301270 -0.75000000 -0.50000000
vn -0.86602540 -4.4408921e-16 -0.50000000
vn -0.43301270 0.75000000 -0.50000000
vn 0.43301270 0.75000000 -0.50000000
g cylinder29_copy37_default
usemtl default
f 177//177 182//182 181//181 180//180 179//179 178//178
f 177//177 183//183 188//188 182//182
f 178//178 184//184 183//183 177//177
f 179//179 185//185 184//184 178//178
f 180//180 186//186 185//185 179//179
f 181//181 187//187 186//186 180//180
f 182//182 188//188 187//187 181//181
f 184//184 185//185 186//186 187//187 188//188 183//183
o cylinder29_copy36
#12 vertices, 8 faces
v 2.14198739 0.94560998 2.92646432
v 2.09802603 0.86946669 2.92646432
v 2.01010333 0.86946669 2.92646432
v 1.96614197 0.94560998 2.92646432
v 2.01010333 1.02175328 2.92646432
v 2.09802603 1.02175328 2.92646432
v 2.14198739 0.94560998 0.46512733
v 2.09802603 0.86946669 0.46512733
v 2.01010333 0.86946669 0.46512733
v 1.96614197 0.94560998 0.46512733
v 2.01010333 1.02175328 0.46512733
v 2.09802603 1.02175328 0.46512733
vn 0.86602540 -4.4408921e-16 0.50000000
vn 0.43301270 -0.75000000 0.50000000
vn -0.43301270 -0.75000000 0.50000000
vn -0.86602540 -4.4408921e-16 0.50000000
vn -0.43301270 0.75000000 0.50000000
vn 0.43301270 0.75000000 0.50000000
vn 0.86602540 -4.4408921e-16 -0.50000000
vn 0.43301270 -0.75000000 -0.50000000
vn -0.43301270 -0.75000000 -0.50000000
vn -0.86602540 -4.4408921e-16 -0.50000000
vn -0.43301270 0.75000000 -0.50000000
vn 0.43301270 0.75000000 -0.50000000
g cylinder29_copy36_default
usemtl default
f 189//189 194//194 193//193 192//192 191//191 190//190
f 189//189 195//195 200//200 194//194
f 190//190 196//196 195//195 189//189
f 191//191 197//197 196//196 190//190
f 192//192 198//198 197//197 191//191
f 193//193 199//199 198//198 192//192
f 194//194 200//200 199//199 193//193
f 196//196 197//197 198//198 199//199 200//200 195//195
o cylinder29_copy35
#12 vertices, 8 faces
v 2.34198739 1.34560998 2.92646432
v 2.29802603 1.26946669 2.92646432
v 2.21010333 1.26946669 2.92646432
v 2.16614197 1.34560998 2.92646432
v 2.21010333 1.42175328 2.92646432
v 2.29802603 1.42175328 2.92646432
v 2.34198739 1.34560998 0.46512733
v 2.29802603 1.26946669 0.46512733
v 2.21010333 1.26946669 0.46512733
v 2.16614197 1.34560998 0.46512733
v 2.21010333 1.42175328 0.46512733
v 2.29802603 1.42175328 0.46512733
vn 0.86602540 -4.4408921e-16 0.50000000
vn 0.43301270 -0.75000000 0.50000000
vn -0.43301270 -0.75000000 0.50000000
vn -0.86602540 -4.4408921e-16 0.50000000
vn -0.43301270 0.75000000 0.50000000
vn 0.43301270 0.75000000 0.50000000
vn 0.86602540 -4.4408921e-16 -0.50000000
vn 0.43301270 -0.75000000 -0.50000000
vn -0.43301270 -0.75000000 -0.50000000
vn -0.86602540 -4.4408921e-16 -0.50000000
vn -0.43301270 0.75000000 -0.50000000
vn 0.43301270 0.75000000 -0.50000000
g cylinder29_copy35_default
usemtl default
f 201//201 206//206 205//205 204//204 203//203 202//202
f 201//201 207//207 212//212 206//206
f 202//202 208//208 207//207 201//201
f 203//203 209//209 208//208 202//202
f 204//204 210//210 209//209 203//203
f 205//205 211//211 210//210 204//204
f 206//206 212//212 211//211 205//205
f 208//208 209//209 210//210 211//211 212//212 207//207
o cylinder29_copy34
#12 vertices, 8 faces
v 2.14198739 1.34560998 2.92646432
v 2.09802603 1.26946669 2.92646432
v 2.01010333 1.26946669 2.92646432
v 1.96614197 1.34560998 2.92646432
v 2.01010333 1.42175328 2.92646432
v 2.09802603 1.42175328 2.92646432
v 2.14198739 1.34560998 0.46512733
v 2.09802603 1.26946669 0.46512733
v 2.01010333 1.26946669 0.46512733
v 1.96614197 1.34560998 0.46512733
v 2.01010333 1.42175328 0.46512733
v 2.09802603 1.42175328 0.46512733
vn 0.86602540 -4.4408921e-16 0.50000000
vn 0.43301270 -0.75000000 0.50000000
vn -0.43301270 -0.75000000 0.50000000
vn -0.86602540 -4.4408921e-16 0.50000000
vn -0.43301270 0.75000000 0.50000000
vn 0.43301270 0.75000000 0.50000000
vn 0.86602540 -4.4408921e-16 -0.50000000
vn 0.43301270 -0.75000000 -0.50000000
vn -0.43301270 -0.75000000 -0.50000000
vn -0.86602540 -4.4408921e-16 -0.50000000
vn -0.43301270 0.75000000 -0.50000000
vn 0.43301270 0.75000000 -0.50000000
g cylinder29_copy34_default
usemtl default
f 213//213 218//218 217//217 216//216 215//215 214//214
f 213//213 219//219 224//224 218//218
f 214//214 220//220 219//219 213//213
f 215//215 221//221 220//220 214//214
f 216//216 222//222 221//221 215//215
f 217//217 223//223 222//222 216//216
f 218//218 224//224 223//223 217//217
f 220//220 221//221 222//222 223//223 224//224 219//219
o cylinder29_copy33
#12 vertices, 8 faces
v 2.04198739 1.14560998 2.92646432
v 1.99802603 1.06946669 2.92646432
v 1.91010333 1.06946669 2.92646432
v 1.86614197 1.14560998 2.92646432
v 1.91010333 1.22175328 2.92646432
v 1.99802603 1.22175328 2.92646432
v 2.04198739 1.14560998 0.46512733
v 1.99802603 1.06946669 0.46512733
v 1.91010333 1.06946669 0.46512733
v 1.86614197 1.14560998 0.46512733
v 1.91010333 1.22175328 0.46512733
v 1.99802603 1.22175328 0.46512733
vn 0.86602540 -1.7763568e-15 0.50000000
vn 0.43301270 -0.75000000 0.50000000
vn -0.43301270 -0.75000000 0.50000000
vn -0.86602540 -1.7486013e-15 0.50000000
vn -0.43301270 0.75000000 0.50000000
vn 0.43301270 0.75000000 0.50000000
vn 0.86602540 -1.7763568e-15 -0.50000000
vn 0.43301270 -0.75000000 -0.50000000
vn -0.43301270 -0.75000000 -0.50000000
vn -0.86602540 -1.7486013e-15 -0.50000000
vn -0.43301270 0.75000000 -0.50000000
vn 0.43301270 0.75000000 -0.50000000
g cylinder29_copy33_default
usemtl default
f 225//225 230//230 229//229 228//228 227//227 226//226
f 225//225 231//231 236//236 230//230
f 226//226 232//232 231//231 225//225
f 227//227 233//233 232//232 226//226
f 228//228 234//234 233//233 227//227
f 229//229 235//235 234//234 228//228
f 230//230 236//236 235//235 229//229
f 232//232 233//233 234//234 235//235 236//236 231//231
o cylinder29_copy32
#12 vertices, 8 faces
v 2.44198739 1.14560998 2.92646432
v 2.39802603 1.06946669 2.92646432
v 2.31010333 1.06946669 2.92646432
v 2.26614197 1.14560998 2.92646432
v 2.31010333 1.22175328 2.92646432
v 2.39802603 1.22175328 2.92646432
v 2.44198739 1.14560998 0.46512733
v 2.39802603 1.06946669 0.46512733
v 2.31010333 1.06946669 0.46512733
v 2.26614197 1.14560998 0.46512733
v 2.31010333 1.22175328 0.46512733
v 2.39802603 1.22175328 0.46512733
vn 0.86602540 -1.7763568e-15 0.50000000
vn 0.43301270 -0.75000000 0.50000000
vn -0.43301270 -0.75000000 0.50000000
vn -0.86602540 -1.7763568e-15 0.50000000
vn -0.43301270 0.75000000 0.50000000
vn 0.43301270 0.75000000 0.50000000
vn 0.86602540 -1.7763568e-15 -0.50000000
vn 0.43301270 -0.75000000 -0.50000000
vn -0.43301270 -0.75000000 -0.50000000
vn -0.86602540 -1.7763568e-15 -0.50000000
vn -0.43301270 0.75000000 -0.50000000
vn 0.43301270 0.75000000 -0.50000000
g cylinder29_copy32_default
usemtl default
f 237//237 242//242 241//241 240//240 239//239 238//238
f 237//237 243//243 248//248 242//242
f 238//238 244//244 243//243 237//237
f 239//239 245//245 244//244 238//238
f 240//240 246//246 245//245 239//239
f 241//241 247//247 246//246 240//240
f 242//242 248//248 247//247 241//241
f 244//244 245//245 246//246 247//247 248//248 243//243
o cylinder29_copy31
#12 vertices, 8 faces
v 2.50648855 1.14560998 2.80065511
v 2.33027662 0.84040196 2.80065511
v 1.97785274 0.84040196 2.80065511
v 1.80164081 1.14560998 2.80065511
v 1.97785274 1.45081801 2.80065511
v 2.33027662 1.45081801 2.80065511
v 2.50648855 1.14560998 2.65937291
v 2.33027662 0.84040196 2.65937291
v 1.97785274 0.84040196 2.65937291
v 1.80164081 1.14560998 2.65937291
v 1.97785274 1.45081801 2.65937291
v 2.33027662 1.45081801 2.65937291
vn 0.86602540 8.6042284e-16 0.50000000
vn 0.43301270 -0.75000000 0.50000000
vn -0.43301270 -0.75000000 0.50000000
vn -0.86602540 1.9428903e-16 0.50000000
vn -0.43301270 0.75000000 0.50000000
vn 0.43301270 0.75000000 0.50000000
vn 0.86602540 8.6042284e-16 -0.50000000
vn 0.43301270 -0.75000000 -0.50000000
vn -0.43301270 -0.75000000 -0.50000000
vn -0.86602540 1.9428903e-16 -0.50000000
vn -0.43301270 0.75000000 -0.50000000
vn 0.43301270 0.75000000 -0.50000000
g cylinder29_copy31_default
usemtl default
f 249//249 254//254 253//253 252//252 251//251 250//250
f 249//249 255//255 260//260 254//254
f 250//250 256//256 255//255 249//249
f 251//251 257//257 256//256 250//250
f 252//252 258//258 257//257 251//251
f 253//253 259//259 258//258 252//252
f 254//254 260//260 259//259 253//253
f 256//256 257//257 258//258 259//259 260//260 255//255
o cylinder29_copy30
#12 vertices, 8 faces
v 2.50648855 1.14560998 2.42654765
v 2.33027662 0.84040196 2.42654765
v 1.97785274 0.84040196 2.42654765
v 1.80164081 1.14560998 2.42654765
v 1.97785274 1.45081801 2.42654765
v 2.33027662 1.45081801 2.42654765
v 2.50648855 1.14560998 2.28526545
v 2.33027662 0.84040196 2.28526545
v 1.97785274 0.84040196 2.28526545
v 1.80164081 1.14560998 2.28526545
v 1.97785274 1.45081801 2.28526545
v 2.33027662 1.45081801 2.28526545
vn 0.86602540 8.6042284e-16 0.50000000
vn 0.43301270 -0.75000000 0.50000000
vn -0.43301270 -0.75000000 0.50000000
vn -0.86602540 1.9428903e-16 0.50000000
vn -0.43301270 0.75000000 0.50000000
vn 0.43301270 0.75000000 0.50000000
vn 0.86602540 8.6042284e-16 -0.50000000
vn 0.43301270 -0.75000000 -0.50000000
vn -0.43301270 -0.75000000 -0.50000000
vn -0.86602540 1.9428903e-16 -0.50000000
vn -0.43301270 0.75000000 -0.50000000
vn 0.43301270 0.75000000 -0.50000000
g cylinder29_copy30_default
usemtl default
f 261//261 266//266 265//265 264//264 263//263 262//262
f 261//261 267//267 272//272 266//266
f 262//262 268//268 267//267 261//261
f 263//263 269//269 268//268 262//262
f 264//264 270//270 269//269 263//263
f 265//265 271//271 270//270 264//264
f 266//266 272//272 271//271 265//265
f 268//268 269//269 270//270 271//271 272//272 267//267
o cylinder29
#12 vertices, 8 faces
v 2.50648855 1.14560998 0.49812954
v 2.33027662 0.84040196 0.49812954
v 1.97785274 0.84040196 0.49812954
v 1.80164081 1.14560998 0.49812954
v 1.97785274 1.45081801 0.49812954
v 2.33027662 1.45081801 0.49812954
v 2.50648855 1.14560998 6.6031731e-2
v 2.33027662 0.84040196 6.6031731e-2
v 1.97785274 0.84040196 6.6031731e-2
v 1.80164081 1.14560998 6.6031731e-2
v 1.97785274 1.45081801 6.6031731e-2
v 2.33027662 1.45081801 6.6031731e-2
vn 0.86602540 5.8286709e-16 0.50000000
vn 0.43301270 -0.75000000 0.50000000
vn -0.43301270 -0.75000000 0.50000000
vn -0.86602540 0.0000000e+0 0.50000000
vn -0.43301270 0.75000000 0.50000000
vn 0.43301270 0.75000000 0.50000000
vn 0.86602540 5.8286709e-16 -0.50000000
vn 0.43301270 -0.75000000 -0.50000000
vn -0.43301270 -0.75000000 -0.50000000
vn -0.86602540 0.0000000e+0 -0.50000000
vn -0.43301270 0.75000000 -0.50000000
vn 0.43301270 0.75000000 -0.50000000
g cylinder29_default
usemtl default
f 273//273 278//278 277//277 276//276 275//275 274//274
f 273//273 279//279 284//284 278//278
f 274//274 280//280 279//279 273//273
f 275//275 281//281 280//280 274//274
f 276//276 282//282 281//281 275//275
f 277//277 283//283 282//282 276//276
f 278//278 284//284 283//283 277//277
f 280//280 281//281 282//282 283//283 284//284 279//279
o cube24
#32 vertices, 30 faces
v 1.26911967 1.26898753 -4.6144099e-2
v 1.26911967 1.40498753 -4.6144099e-2
v 1.40511967 1.40498753 -4.6144099e-2
v 1.40511967 1.26898753 -4.6144099e-2
v 1.26911967 1.26898753 -0.45781192
v 1.26911967 1.40498753 -0.45781192
v 1.40511967 1.40498753 -0.45781192
v 1.40511967 1.26898753 -0.45781192
v 1.49883006 1.01615013 -4.6144099e-2
v 1.37253836 0.96568819 -4.6144099e-2
v 1.37253836 0.96568819 -0.45781192
v 1.49883006 1.01615013 -0.45781192
v 1.61166611 0.86371939 -4.6144099e-2
v 1.52493987 0.75895985 -4.6144099e-2
v 1.52493987 0.75895985 -0.45781192
v 1.61166611 0.86371939 -0.45781192
v 1.75757814 0.80678490 -4.6144099e-2
v 1.75634386 0.67079050 -4.6144099e-2
v 1.75634386 0.67079050 -0.45781192
v 1.75757814 0.80678490 -0.45781192
v 1.92802522 0.79892665 -4.6144099e-2
v 1.98412095 0.67503448 -4.6144099e-2
v 1.98412095 0.67503448 -0.45781192
v 1.92802522 0.79892665 -0.45781192
v 2.04413840 0.86868542 -4.6144099e-2
v 2.15080911 0.78432098 -4.6144099e-2
v 2.15080911 0.78432098 -0.45781192
v 2.04413840 0.86868542 -0.45781192
v 2.15265895 1.11061656 -4.6144099e-2
v 2.25932967 1.02625212 -4.6144099e-2
v 2.25932967 1.02625212 -0.45781192
v 2.15265895 1.11061656 -0.45781192
vn -0.69283796 -0.11487436 0.71188443
vn -0.57735027 0.57735027 0.57735027
vn 0.57735027 0.57735027 0.57735027
vn 0.69046999 0.12384000 0.71268145
vn -0.69283796 -0.11487436 -0.71188443
vn -0.57735027 0.57735027 -0.57735027
vn 0.57735027 0.57735027 -0.57735027
vn 0.69046999 0.12384000 -0.71268145
vn 0.61875234 0.33488596 0.71063137
vn -0.62285803 -0.32580355 0.71126643
vn -0.62285803 -0.32580355 -0.71126643
vn 0.61875234 0.33488596 -0.71063137
vn 0.42084352 0.55038972 0.72108383
vn -0.41886775 -0.55123919 0.72158518
vn -0.41886775 -0.55123919 -0.72158518
vn 0.42084352 0.55038972 -0.72108383
vn 0.14576378 0.68708314 0.71180733
vn -0.12038970 -0.69014406 0.71358776
vn -0.12038970 -0.69014406 -0.71358776
vn 0.14576378 0.68708314 -0.71180733
vn -0.16937596 0.67042425 0.72238709
vn 0.20440260 -0.66200189 0.72109158
vn 0.20440260 -0.66200189 -0.72109158
vn -0.16937596 0.67042425 -0.72238709
vn -0.51636786 0.45814968 0.72350750
vn 0.52691380 -0.44930256 0.72144928
vn 0.52691380 -0.44930256 -0.72144928
vn -0.51636786 0.45814968 -0.72350750
vn -0.18436184 0.75339847 0.63119051
vn 0.82046023 0.20077232 0.53529010
vn 0.82046023 0.20077232 -0.53529010
vn -0.18436184 0.75339847 -0.63119051
g cube24_default
usemtl default
f 285//285 288//288 287//287 286//286
f 285//285 294//294 293//293 288//288
f 286//286 290//290 289//289 285//285
f 287//287 291//291 290//290 286//286
f 288//288 292//292 291//291 287//287
f 288//288 293//293 296//296 292//292
f 289//289 295//295 294//294 285//285
f 290//290 291//291 292//292 289//289
f 292//292 296//296 295//295 289//289
f 293//293 297//297 300//300 296//296
f 294//294 298//298 297//297 293//293
f 295//295 299//299 298//298 294//294
f 296//296 300//300 299//299 295//295
f 297//297 301//301 304//304 300//300
f 298//298 302//302 301//301 297//297
f 299//299 303//303 302//302 298//298
f 300//300 304//304 303//303 299//299
f 301//301 305//305 308//308 304//304
f 302//302 306//306 305//305 301//301
f 303//303 307//307 306//306 302//302
f 304//304 308//308 307//307 303//303
f 305//305 309//309 312//312 308//308
f 306//306 310//310 309//309 305//305
f 307//307 311//311 310//310 306//306
f 308//308 312//312 311//311 307//307
f 309//309 313//313 316//316 312//312
f 310//310 314//314 313//313 309//309
f 311//311 315//315 314//314 310//310
f 312//312 316//316 315//315 311//311
f 314//314 315//315 316//316 313//313
o cube10_copy15
#102 vertices, 98 faces
v -1.40202354 -2.96194376 0.75314289
v -1.40202354 -2.59560516 0.75314289
v -1.66294767 -2.59560516 0.75314289
v -1.66294767 -2.96194376 0.75314289
v -1.40202354 -2.96194376 0.33532280
v -1.40202354 -2.59560516 0.33532280
v -1.66294767 -2.59560516 0.33532280
v -1.66294767 -2.96194376 0.33532280
v -1.40202354 -0.50937925 -1.12960858
v -1.66294767 -0.50937925 -1.12960858
v -1.66294767 -0.61778775 -1.44959350
v -1.40202354 -0.61778775 -1.44959350
v -1.40202354 -2.59560516 1.04977430
v -1.40202354 -2.96194376 1.39053271
v -1.66294767 -2.96194376 1.39053271
v -1.66294767 -2.59560516 1.04977430
v -1.66294767 -0.76298505 -0.90073755
v -1.40202354 -0.76298505 -0.90073755
v -1.66294767 -1.21679677 -0.49118713
v -1.40202354 -1.21679677 -0.49118713
v -1.40202354 -0.85874347 -9.4437975e-2
v -1.66294767 -0.85874347 -9.4437975e-2
v -1.66294767 -0.40493175 -0.50398839
v -1.40202354 -0.40493175 -0.50398839
v -1.66294767 -3.44917213 1.39053271
v -1.40202354 -3.44917213 1.39053271
v -2.06488527 -2.96194376 0.75314289
v -2.06488527 -3.44917213 0.75314289
v -1.87371983 -3.44917213 0.33532280
v -1.87371983 -2.96194376 0.33532280
v -2.23897351 -2.96194376 1.12355464
v -2.23897351 -3.44917213 1.12355464
v -1.00743846 -2.96194376 0.75314289
v -1.00743846 -3.44917213 0.75314289
v -0.83552874 -3.44917213 1.12355464
v -0.83552874 -2.96194376 1.12355464
v -1.20350558 -2.96194376 0.33532280
v -1.20350558 -3.44917213 0.33532280
v -1.19914798 -3.55565706 0.10978032
v -1.19914798 -3.11562363 0.10978032
v -1.84814798 -3.11562363 0.10978032
v -1.84814798 -3.55565706 0.10978032
v -1.31914798 -3.55565706 -0.63728409
v -1.31914798 -3.28303030 -0.63728409
v -1.72814798 -3.28303030 -0.63728409
v -1.72814798 -3.55565706 -0.63728409
v -2.57514675 -3.55629646 2.10118376
v -2.57514675 -3.34742193 2.10118376
v -2.28328959 -3.34742193 2.24353201
v -2.28328959 -3.55629646 2.24353201
v -2.37186581 -3.55629646 1.36365385
v -2.37186581 -3.14532865 1.36365385
v -1.82726033 -3.14532865 1.62927568
v -1.82726033 -3.55629646 1.62927568
v -0.47684784 -3.55629646 2.10118376
v -0.47684784 -3.34742193 2.10118376
v -0.76870501 -3.34742193 2.24353201
v -0.76870501 -3.55629646 2.24353201
v -0.68012879 -3.55629646 1.36365385
v -0.68012879 -3.14532865 1.36365385
v -1.22473427 -3.14532865 1.62927568
v -1.22473427 -3.55629646 1.62927568
v -1.66294767 -1.41619728 -0.72905470
v -1.66294767 -0.95962664 -1.14109495
v -1.40202354 -1.41619728 -0.72905470
v -1.40202354 -0.95962664 -1.14109495
v -1.66294767 -1.45605737 -0.84830831
v -1.40202354 -1.45605737 -0.84830831
v -1.40202354 -1.11288055 -1.15801430
v -1.66294767 -1.11288055 -1.15801430
v -1.40202354 -1.85536883 -0.33271657
v -1.66294767 -1.85536883 -0.33271657
v -1.66294767 -1.65327460 -9.7279993e-2
v -1.40202354 -1.65327460 -9.7279993e-2
v -1.92287878 -2.59560516 0.75314289
v -1.92287878 -2.59560516 0.33532280
v -1.92287878 -1.85536883 -0.33271657
v -1.92287878 -1.65327460 -9.7279993e-2
v -1.13528795 -2.59560516 0.33532280
v -1.13528795 -2.59560516 0.75314289
v -1.13528795 -1.65327460 -9.7279993e-2
v -1.13528795 -1.85536883 -0.33271657
v -1.40202354 -2.29591951 0.79408159
v -1.66294767 -2.29591951 0.79408159
v -1.66294767 -1.60744334 0.17275409
v -1.40202354 -1.60744334 0.17275409
v -1.24602779 -1.60744334 0.17275409
v -1.24602779 -2.29591951 0.79408159
v -1.82509786 -2.29591951 0.79408159
v -1.82509786 -1.60744334 0.17275409
v -1.40202354 -2.59787951 9.1902467e-2
v -1.66294767 -2.59787951 9.1902467e-2
v -1.40202354 -2.09115829 -0.36539705
v -1.66294767 -2.09115829 -0.36539705
v -1.24602779 -2.59787951 9.1902467e-2
v -1.24602779 -2.09115829 -0.36539705
v -1.82509786 -2.09115829 -0.36539705
v -1.82509786 -2.59787951 9.1902467e-2
v -1.66294767 -0.71154250 -2.8043693e-2
v -1.40202354 -0.71154250 -2.8043693e-2
v -1.40202354 -0.35393887 -0.35076942
v -1.66294767 -0.35393887 -0.35076942
vn 0.70710678 0.70710678 0.0000000e+0
vn 0.70710678 -9.5705797e-2 0.70060003
vn -0.70710678 -9.5705797e-2 0.70060003
vn -0.70710678 0.70710678 0.0000000e+0
vn 0.38407685 0.70147653 -0.60034627
vn 0.30202724 -0.90605534 -0.29638364
vn -0.30202724 -0.90605534 -0.29638364
vn -0.38407685 0.70147653 -0.60034627
vn 0.51348471 0.83035458 0.21643644
vn -0.51348471 0.83035458 0.21643644
vn -0.67307939 0.18654024 -0.71565835
vn 0.67307939 0.18654024 -0.71565835
vn 0.47879448 0.80489216 0.35057732
vn 0.11289218 0.66363429 0.73948961
vn -0.10874132 0.66544859 0.73848054
vn -0.47879448 0.80489216 0.35057732
vn -0.90453403 0.42584220 2.1831317e-2
vn 0.90453403 0.42584220 2.1831317e-2
vn -0.90453403 -2.1831317e-2 0.42584220
vn 0.90453403 -2.1831317e-2 0.42584220
vn 0.71465387 -0.41219067 0.56512716
vn -0.71465387 -0.41219067 0.56512716
vn -0.71465387 0.60431650 -0.35223772
vn 0.71465387 0.60431650 -0.35223772
vn 0.39106270 -0.77401568 0.49796555
vn -0.37979462 -0.77150778 0.51042315
vn -0.64148081 0.70711142 -0.29748245
vn -0.64148081 -0.70711142 -0.29748245
vn -0.70635954 -0.70684450 -3.7776493e-2
vn -0.66662153 0.63979563 -0.38246214
vn -0.73068355 0.66594257 -0.15040629
vn -0.57854013 -0.68787908 -0.43830775
vn 0.64076408 0.70710757 -0.29903222
vn 0.64076408 -0.70710757 -0.29903222
vn 0.56651069 -0.68770615 -0.45401089
vn 0.72046791 0.67113078 -0.17466961
vn 0.67766202 0.64966838 -0.34453620
vn 0.70723520 -0.70693354 7.9591428e-3
vn 0.71809082 -0.68814244 0.10394975
vn 0.70059826 0.63538807 -0.32472154
vn -0.68839549 0.62626864 -0.36592246
vn -0.71977048 -0.69190369 5.6566192e-2
vn 0.54210454 -0.54905358 -0.63613114
vn 0.50491284 0.49900982 -0.70430975
vn -0.50491284 0.49900982 -0.70430975
vn -0.54210454 -0.54905358 -0.63613114
vn -0.76422301 -0.54493063 0.34498377
vn -0.75980470 0.48395486 0.43414803
vn 0.12566917 0.48395486 0.86602249
vn 0.19865175 -0.54493063 0.81460917
vn -0.60618251 -0.69550816 -0.38576051
vn -0.77182127 0.63579262 -7.7248340e-3
vn 0.43936567 0.61974798 0.65028474
vn 0.64505190 -0.70083952 0.30451930
vn 0.76422301 -0.54493063 0.34498377
vn 0.75980470 0.48395486 0.43414803
vn -0.12566917 0.48395486 0.86602249
vn -0.19865175 -0.54493063 0.81460917
vn 0.59381220 -0.69599696 -0.40370199
vn 0.76470385 0.64356417 -3.2452653e-2
vn -0.43186826 0.62020954 0.65485107
vn -0.63680902 -0.70229700 0.31820308
vn -0.87332781 -0.47113107 -0.12383074
vn -0.85440062 -0.15955708 -0.49451099
vn 0.87332781 -0.47113107 -0.12383074
vn 0.85440062 -0.15955708 -0.49451099
vn -0.51297831 -0.83020380 -0.21820839
vn 0.51297831 -0.83020380 -0.21820839
vn 0.48063815 -0.26927375 -0.83455294
vn -0.48063815 -0.26927375 -0.83455294
vn 0.28260342 0.10269578 -0.95372369
vn -0.28260342 0.10269578 -0.95372369
vn -0.28145882 0.95712044 -6.8566794e-2
vn 0.28145882 0.95712044 -6.8566794e-2
vn -0.77822838 -0.35421422 0.51854881
vn -0.62626544 -0.77126792 -0.11374269
vn -0.67159258 0.20681945 -0.71146969
vn -0.67945836 0.70941251 -0.18727048
vn 0.61500681 -0.77859135 -0.12474827
vn 0.77304297 -0.34383151 0.53308954
vn 0.67229515 0.71905282 -0.17601782
vn 0.66191818 0.19564106 -0.72359443
vn -1.4831571e-16 0.29476142 0.95557088
vn 1.6500348e-16 0.29476142 0.95557088
vn 1.7073403e-16 0.94465701 0.32805966
vn -1.5346669e-16 0.94465701 0.32805966
vn 0.38809861 0.83712921 0.38547912
vn 0.37738578 0.34483367 0.85945897
vn -0.39019536 0.33707747 0.85681174
vn -0.40121035 0.83503625 0.37648999
vn 1.1495880e-16 -0.91566451 -0.40194342
vn -1.0384072e-15 -0.91566451 -0.40194342
vn 1.1564362e-16 -0.29382590 -0.95585896
vn -4.4858084e-16 -0.29382590 -0.95585896
vn 0.34734456 -0.82015515 -0.45463973
vn 0.34906933 -0.35970157 -0.86531230
vn -0.36460678 -0.35148526 -0.86227606
vn -0.36281460 -0.81801002 -0.44634647
vn -0.51281857 0.13272742 0.84817483
vn 0.51281857 0.13272742 0.84817483
vn 0.51281857 0.83015494 0.21876904
vn -0.51281857 0.83015494 0.21876904
g cube10_copy15_default
usemtl default
f 317//317 321//321 322//322 318//318
f 317//317 330//330 352//352 349//349
f 318//318 329//329 330//330 317//317
f 318//318 396//396 404//404 399//399
f 318//318 399//399 400//400 319//319
f 319//319 323//323 324//324 320//320
f 319//319 332//332 329//329 318//318
f 319//319 391//391 392//392 323//323
f 320//320 331//331 332//332 319//319
f 320//320 343//343 347//347 331//331
f 321//321 324//324 323//323 322//322
f 321//321 353//353 356//356 357//357 346//346 324//324
f 322//322 395//395 396//396 318//318
f 323//323 392//392 414//414 408//408
f 323//323 408//408 407//407 322//322
f 324//324 346//346 343//343 320//320
f 325//325 328//328 327//327 326//326
f 325//325 334//334 382//382 328//328
f 326//326 333//333 334//334 325//325
f 327//327 380//380 333//333 326//326
f 328//328 382//382 380//380 327//327
f 329//329 332//332 331//331 330//330
f 330//330 377//377 376//376 352//352
f 331//331 341//341 342//342 330//330
f 331//331 369//369 370//370 341//341
f 333//333 339//339 340//340 334//334
f 333//333 380//380 379//379 335//335
f 334//334 340//340 337//337 336//336
f 335//335 338//338 339//339 333//333
f 335//335 389//389 390//390 336//336
f 336//336 337//337 338//338 335//335
f 336//336 381//381 382//382 334//334
f 336//336 390//390 387//387 381//381
f 337//337 416//416 415//415 338//338
f 338//338 415//415 418//418 339//339
f 339//339 418//418 417//417 340//340
f 340//340 417//417 416//416 337//337
f 341//341 348//348 344//344 350//350 351//351 342//342
f 341//341 370//370 367//367 348//348
f 342//342 378//378 377//377 330//330
f 343//343 346//346 345//345 344//344
f 344//344 348//348 347//347 343//343
f 345//345 354//354 350//350 344//344
f 345//345 358//358 355//355 354//354
f 346//346 357//357 358//358 345//345
f 347//347 368//368 369//369 331//331
f 348//348 367//367 368//368 347//347
f 349//349 352//352 351//351 350//350
f 349//349 353//353 321//321 317//317
f 350//350 354//354 353//353 349//349
f 351//351 375//375 378//378 342//342
f 352//352 376//376 375//375 351//351
f 354//354 355//355 356//356 353//353
f 355//355 359//359 360//360 356//356
f 356//356 360//360 361//361 357//357
f 357//357 361//361 362//362 358//358
f 358//358 362//362 359//359 355//355
f 359//359 362//362 361//361 360//360
f 363//363 366//366 365//365 364//364
f 363//363 367//367 370//370 366//366
f 364//364 368//368 367//367 363//363
f 365//365 369//369 368//368 364//364
f 366//366 370//370 369//369 365//365
f 371//371 375//375 376//376 372//372
f 372//372 373//373 374//374 371//371
f 372//372 376//376 377//377 373//373
f 373//373 377//377 378//378 374//374
f 374//374 378//378 375//375 371//371
f 379//379 383//383 384//384 381//381
f 379//379 388//388 389//389 335//335
f 380//380 386//386 383//383 379//379
f 381//381 384//384 385//385 382//382
f 381//381 387//387 388//388 379//379
f 382//382 385//385 386//386 380//380
f 383//383 386//386 385//385 384//384
f 387//387 409//409 410//410 388//388
f 388//388 393//393 394//394 389//389
f 388//388 410//410 413//413 393//393
f 389//389 401//401 402//402 390//390
f 390//390 397//397 398//398 387//387
f 390//390 402//402 403//403 397//397
f 391//391 394//394 393//393 392//392
f 391//391 405//405 406//406 394//394
f 393//393 413//413 414//414 392//392
f 394//394 406//406 401//401 389//389
f 395//395 398//398 397//397 396//396
f 395//395 411//411 412//412 398//398
f 397//397 403//403 404//404 396//396
f 398//398 412//412 409//409 387//387
f 399//399 404//404 403//403 402//402
f 400//400 405//405 391//391 319//319
f 401//401 406//406 405//405 400//400
f 402//402 401//401 400//400 399//399
f 407//407 408//408 410//410 409//409
f 407//407 411//411 395//395 322//322
f 408//408 414//414 413//413 410//410
f 409//409 412//412 411//411 407//407
f 416//416 417//417 418//418 415//415
o cube10_copy14
#102 vertices, 98 faces
v 1.39700614 -2.96194376 0.75314289
v 1.39700614 -2.59560516 0.75314289
v 1.65793027 -2.59560516 0.75314289
v 1.65793027 -2.96194376 0.75314289
v 1.39700614 -2.96194376 0.33532280
v 1.39700614 -2.59560516 0.33532280
v 1.65793027 -2.59560516 0.33532280
v 1.65793027 -2.96194376 0.33532280
v 1.39700614 -0.50937925 -1.12960858
v 1.65793027 -0.50937925 -1.12960858
v 1.65793027 -0.61778775 -1.44959350
v 1.39700614 -0.61778775 -1.44959350
v 1.39700614 -2.59560516 1.04977430
v 1.39700614 -2.96194376 1.39053271
v 1.65793027 -2.96194376 1.39053271
v 1.65793027 -2.59560516 1.04977430
v 1.65793027 -0.76298505 -0.90073755
v 1.39700614 -0.76298505 -0.90073755
v 1.65793027 -1.21679677 -0.49118713
v 1.39700614 -1.21679677 -0.49118713
v 1.39700614 -0.85874347 -9.4437975e-2
v 1.65793027 -0.85874347 -9.4437975e-2
v 1.65793027 -0.40493175 -0.50398839
v 1.39700614 -0.40493175 -0.50398839
v 1.65793027 -3.44917213 1.39053271
v 1.39700614 -3.44917213 1.39053271
v 2.05986787 -2.96194376 0.75314289
v 2.05986787 -3.44917213 0.75314289
v 1.86870242 -3.44917213 0.33532280
v 1.86870242 -2.96194376 0.33532280
v 2.23395611 -2.96194376 1.12355464
v 2.23395611 -3.44917213 1.12355464
v 1.00242106 -2.96194376 0.75314289
v 1.00242106 -3.44917213 0.75314289
v 0.83051134 -3.44917213 1.12355464
v 0.83051134 -2.96194376 1.12355464
v 1.19848818 -2.96194376 0.33532280
v 1.19848818 -3.44917213 0.33532280
v 1.19413058 -3.55565706 0.10978032
v 1.19413058 -3.11562363 0.10978032
v 1.84313058 -3.11562363 0.10978032
v 1.84313058 -3.55565706 0.10978032
v 1.31413058 -3.55565706 -0.63728409
v 1.31413058 -3.28303030 -0.63728409
v 1.72313058 -3.28303030 -0.63728409
v 1.72313058 -3.55565706 -0.63728409
v 2.57012935 -3.55629646 2.10118376
v 2.57012935 -3.34742193 2.10118376
v 2.27827218 -3.34742193 2.24353201
v 2.27827218 -3.55629646 2.24353201
v 2.36684840 -3.55629646 1.36365385
v 2.36684840 -3.14532865 1.36365385
v 1.82224293 -3.14532865 1.62927568
v 1.82224293 -3.55629646 1.62927568
v 0.47183044 -3.55629646 2.10118376
v 0.47183044 -3.34742193 2.10118376
v 0.76368761 -3.34742193 2.24353201
v 0.76368761 -3.55629646 2.24353201
v 0.67511139 -3.55629646 1.36365385
v 0.67511139 -3.14532865 1.36365385
v 1.21971686 -3.14532865 1.62927568
v 1.21971686 -3.55629646 1.62927568
v 1.65793027 -1.41619728 -0.72905470
v 1.65793027 -0.95962664 -1.14109495
v 1.39700614 -1.41619728 -0.72905470
v 1.39700614 -0.95962664 -1.14109495
v 1.65793027 -1.45605737 -0.84830831
v 1.39700614 -1.45605737 -0.84830831
v 1.39700614 -1.11288055 -1.15801430
v 1.65793027 -1.11288055 -1.15801430
v 1.39700614 -1.85536883 -0.33271657
v 1.65793027 -1.85536883 -0.33271657
v 1.65793027 -1.65327460 -9.7279993e-2
v 1.39700614 -1.65327460 -9.7279993e-2
v 1.91786138 -2.59560516 0.75314289
v 1.91786138 -2.59560516 0.33532280
v 1.91786138 -1.85536883 -0.33271657
v 1.91786138 -1.65327460 -9.7279993e-2
v 1.13027055 -2.59560516 0.33532280
v 1.13027055 -2.59560516 0.75314289
v 1.13027055 -1.65327460 -9.7279993e-2
v 1.13027055 -1.85536883 -0.33271657
v 1.39700614 -2.29591951 0.79408159
v 1.65793027 -2.29591951 0.79408159
v 1.65793027 -1.60744334 0.17275409
v 1.39700614 -1.60744334 0.17275409
v 1.24101038 -1.60744334 0.17275409
v 1.24101038 -2.29591951 0.79408159
v 1.82008046 -2.29591951 0.79408159
v 1.82008046 -1.60744334 0.17275409
v 1.39700614 -2.59787951 9.1902467e-2
v 1.65793027 -2.59787951 9.1902467e-2
v 1.39700614 -2.09115829 -0.36539705
v 1.65793027 -2.09115829 -0.36539705
v 1.24101038 -2.59787951 9.1902467e-2
v 1.24101038 -2.09115829 -0.36539705
v 1.82008046 -2.09115829 -0.36539705
v 1.82008046 -2.59787951 9.1902467e-2
v 1.65793027 -0.71154250 -2.8043693e-2
v 1.39700614 -0.71154250 -2.8043693e-2
v 1.39700614 -0.35393887 -0.35076942
v 1.65793027 -0.35393887 -0.35076942
vn -0.70710678 0.70710678 0.0000000e+0
vn -0.70710678 -9.5705797e-2 0.70060003
vn 0.70710678 -9.5705797e-2 0.70060003
vn 0.70710678 0.70710678 0.0000000e+0
vn -0.38407685 0.70147653 -0.60034627
vn -0.30202724 -0.90605534 -0.29638364
vn 0.30202724 -0.90605534 -0.29638364
vn 0.38407685 0.70147653 -0.60034627
vn -0.51348471 0.83035458 0.21643644
vn 0.51348471 0.83035458 0.21643644
vn 0.67307939 0.18654024 -0.71565835
vn -0.67307939 0.18654024 -0.71565835
vn -0.47879448 0.80489216 0.35057732
vn -0.11289218 0.66363429 0.73948961
vn 0.10874132 0.66544859 0.73848054
vn 0.47879448 0.80489216 0.35057732
vn 0.90453403 0.42584220 2.1831317e-2
vn -0.90453403 0.42584220 2.1831317e-2
vn 0.90453403 -2.1831317e-2 0.42584220
vn -0.90453403 -2.1831317e-2 0.42584220
vn -0.71465387 -0.41219067 0.56512716
vn 0.71465387 -0.41219067 0.56512716
vn 0.71465387 0.60431650 -0.35223772
vn -0.71465387 0.60431650 -0.35223772
vn -0.39106270 -0.77401568 0.49796555
vn 0.37979462 -0.77150778 0.51042315
vn 0.64148081 0.70711142 -0.29748245
vn 0.64148081 -0.70711142 -0.29748245
vn 0.70635954 -0.70684450 -3.7776493e-2
vn 0.66662153 0.63979563 -0.38246214
vn 0.73068355 0.66594257 -0.15040629
vn 0.57854013 -0.68787908 -0.43830775
vn -0.64076408 0.70710757 -0.29903222
vn -0.64076408 -0.70710757 -0.29903222
vn -0.56651069 -0.68770615 -0.45401089
vn -0.72046791 0.67113078 -0.17466961
vn -0.67766202 0.64966838 -0.34453620
vn -0.70723520 -0.70693354 7.9591428e-3
vn -0.71809082 -0.68814244 0.10394975
vn -0.70059826 0.63538807 -0.32472154
vn 0.68839549 0.62626864 -0.36592246
vn 0.71977048 -0.69190369 5.6566192e-2
vn -0.54210454 -0.54905358 -0.63613114
vn -0.50491284 0.49900982 -0.70430975
vn 0.50491284 0.49900982 -0.70430975
vn 0.54210454 -0.54905358 -0.63613114
vn 0.76422301 -0.54493063 0.34498377
vn 0.75980470 0.48395486 0.43414803
vn -0.12566917 0.48395486 0.86602249
vn -0.19865175 -0.54493063 0.81460917
vn 0.60618251 -0.69550816 -0.38576051
vn 0.77182127 0.63579262 -7.7248340e-3
vn -0.43936567 0.61974798 0.65028474
vn -0.64505190 -0.70083952 0.30451930
vn -0.76422301 -0.54493063 0.34498377
vn -0.75980470 0.48395486 0.43414803
vn 0.12566917 0.48395486 0.86602249
vn 0.19865175 -0.54493063 0.81460917
vn -0.59381220 -0.69599696 -0.40370199
vn -0.76470385 0.64356417 -3.2452653e-2
vn 0.43186826 0.62020954 0.65485107
vn 0.63680902 -0.70229700 0.31820308
vn 0.87332781 -0.47113107 -0.12383074
vn 0.85440062 -0.15955708 -0.49451099
vn -0.87332781 -0.47113107 -0.12383074
vn -0.85440062 -0.15955708 -0.49451099
vn 0.51297831 -0.83020380 -0.21820839
vn -0.51297831 -0.83020380 -0.21820839
vn -0.48063815 -0.26927375 -0.83455294
vn 0.48063815 -0.26927375 -0.83455294
vn -0.28260342 0.10269578 -0.95372369
vn 0.28260342 0.10269578 -0.95372369
vn 0.28145882 0.95712044 -6.8566794e-2
vn -0.28145882 0.95712044 -6.8566794e-2
vn 0.77822838 -0.35421422 0.51854881
vn 0.62626544 -0.77126792 -0.11374269
vn 0.67159258 0.20681945 -0.71146969
vn 0.67945836 0.70941251 -0.18727048
vn -0.61500681 -0.77859135 -0.12474827
vn -0.77304297 -0.34383151 0.53308954
vn -0.67229515 0.71905282 -0.17601782
vn -0.66191818 0.19564106 -0.72359443
vn -2.0702594e-17 0.29476142 0.95557088
vn -3.3000697e-16 0.29476142 0.95557088
vn -3.4146806e-16 0.94465701 0.32805966
vn -2.1421592e-17 0.94465701 0.32805966
vn -0.38809861 0.83712921 0.38547912
vn -0.37738578 0.34483367 0.85945897
vn 0.39019536 0.33707747 0.85681174
vn 0.40121035 0.83503625 0.37648999
vn -1.1495880e-16 -0.91566451 -0.40194342
vn 1.0384072e-15 -0.91566451 -0.40194342
vn -1.1564362e-16 -0.29382590 -0.95585896
vn 4.4858084e-16 -0.29382590 -0.95585896
vn -0.34734456 -0.82015515 -0.45463973
vn -0.34906933 -0.35970157 -0.86531230
vn 0.36460678 -0.35148526 -0.86227606
vn 0.36281460 -0.81801002 -0.44634647
vn 0.51281857 0.13272742 0.84817483
vn -0.51281857 0.13272742 0.84817483
vn -0.51281857 0.83015494 0.21876904
vn 0.51281857 0.83015494 0.21876904
g cube10_copy14_default
usemtl default
f 419//419 423//423 455//455 451//451
f 419//419 432//432 431//431 420//420
f 420//420 424//424 423//423 419//419
f 420//420 431//431 434//434 421//421
f 420//420 498//498 497//497 424//424
f 421//421 434//434 433//433 422//422
f 421//421 493//493 507//507 502//502
f 421//421 502//502 501//501 420//420
f 422//422 426//426 425//425 421//421
f 422//422 445//445 448//448 426//426
f 424//424 425//425 426//426 423//423
f 424//424 497//497 513//513 509//509
f 424//424 509//509 510//510 425//425
f 425//425 494//494 493//493 421//421
f 426//426 448//448 459//459 458//458 455//455 423//423
f 427//427 436//436 435//435 428//428
f 428//428 429//429 430//430 427//427
f 428//428 435//435 482//482 429//429
f 429//429 482//482 484//484 430//430
f 430//430 484//484 436//436 427//427
f 432//432 433//433 434//434 431//431
f 432//432 444//444 443//443 433//433
f 432//432 479//479 480//480 444//444
f 433//433 449//449 445//445 422//422
f 433//433 471//471 470//470 449//449
f 435//435 441//441 440//440 437//437
f 436//436 442//442 441//441 435//435
f 436//436 484//484 483//483 438//438
f 437//437 440//440 439//439 438//438
f 437//437 481//481 482//482 435//435
f 437//437 491//491 490//490 481//481
f 438//438 439//439 442//442 436//436
f 438//438 492//492 491//491 437//437
f 439//439 518//518 519//519 442//442
f 440//440 517//517 518//518 439//439
f 441//441 520//520 517//517 440//440
f 442//442 519//519 520//520 441//441
f 443//443 472//472 471//471 433//433
f 444//444 453//453 452//452 446//446 450//450 443//443
f 444//444 480//480 477//477 453//453
f 445//445 449//449 450//450 446//446
f 446//446 447//447 448//448 445//445
f 446//446 452//452 456//456 447//447
f 447//447 460//460 459//459 448//448
f 449//449 470//470 469//469 450//450
f 450//450 469//469 472//472 443//443
f 451//451 454//454 432//432 419//419
f 451//451 455//455 456//456 452//452
f 452//452 453//453 454//454 451//451
f 453//453 477//477 478//478 454//454
f 454//454 478//478 479//479 432//432
f 455//455 458//458 457//457 456//456
f 456//456 457//457 460//460 447//447
f 457//457 461//461 464//464 460//460
f 458//458 462//462 461//461 457//457
f 459//459 463//463 462//462 458//458
f 460//460 464//464 463//463 459//459
f 462//462 463//463 464//464 461//461
f 465//465 469//469 470//470 466//466
f 466//466 467//467 468//468 465//465
f 466//466 470//470 471//471 467//467
f 467//467 471//471 472//472 468//468
f 468//468 472//472 469//469 465//465
f 473//473 476//476 475//475 474//474
f 473//473 477//477 480//480 476//476
f 474//474 478//478 477//477 473//473
f 475//475 479//479 478//478 474//474
f 476//476 480//480 479//479 475//475
f 481//481 485//485 488//488 482//482
f 481//481 490//490 489//489 483//483
f 482//482 488//488 487//487 484//484
f 483//483 486//486 485//485 481//481
f 483//483 489//489 492//492 438//438
f 484//484 487//487 486//486 483//483
f 486//486 487//487 488//488 485//485
f 489//489 500//500 499//499 492//492
f 489//489 511//511 514//514 500//500
f 490//490 512//512 511//511 489//489
f 491//491 496//496 495//495 490//490
f 491//491 503//503 508//508 496//496
f 492//492 504//504 503//503 491//491
f 494//494 495//495 496//496 493//493
f 494//494 516//516 515//515 495//495
f 495//495 515//515 512//512 490//490
f 496//496 508//508 507//507 493//493
f 498//498 499//499 500//500 497//497
f 498//498 506//506 505//505 499//499
f 499//499 505//505 504//504 492//492
f 500//500 514//514 513//513 497//497
f 501//501 502//502 503//503 504//504
f 501//501 506//506 498//498 420//420
f 502//502 507//507 508//508 503//503
f 504//504 505//505 506//506 501//501
f 509//509 513//513 514//514 511//511
f 510//510 516//516 494//494 425//425
f 511//511 512//512 510//510 509//509
f 512//512 515//515 516//516 510//510
f 517//517 520//520 519//519 518//518
o cube11_copy13
#24 vertices, 22 faces
v 1.08527894 -1.16865383 -0.52485002
v 1.08527894 -0.16749309 0.68274076
v 1.38955404 -0.16749309 0.68274076
v 1.38955404 -1.16865383 -0.52485002
v 1.08527894 -0.80941644 -0.85973881
v 1.08527894 -0.20578135 -0.14968605
v 1.38955404 -0.20578135 -0.14968605
v 1.38955404 -0.80941644 -0.85973881
v 0.87199850 0.30658201 1.10822228
v 1.17627360 0.30658201 1.10822228
v 1.17627360 0.30658201 5.1336890e-2
v 0.87199850 0.30658201 5.1336890e-2
v 0.87199850 0.62282542 1.10822228
v 1.17627360 0.62282542 1.10822228
v 1.17627360 0.62282542 5.1336890e-2
v 0.87199850 0.62282542 5.1336890e-2
v 0.87199850 0.87287835 0.89473143
v 1.17627360 0.87287835 0.89473143
v 1.17627360 0.87287835 0.26482774
v 0.87199850 0.87287835 0.26482774
v 1.08527894 -1.22885905 -0.69314784
v 1.38955404 -1.22885905 -0.69314784
v 1.38955404 -0.97308203 -0.93158866
v 1.08527894 -0.97308203 -0.93158866
vn -0.71248587 -0.60967586 0.34736038
vn -0.63912452 -0.61346362 0.46387739
vn 0.74386434 -0.40243550 0.53358365
vn 0.71248587 -0.60967586 0.34736038
vn -0.71617619 0.41676654 -0.55981900
vn -0.74217866 0.28118939 -0.60836121
vn 0.65621591 0.52347235 -0.54346792
vn 0.71617619 0.41676654 -0.55981900
vn -0.68232174 -0.38076444 0.62406369
vn 0.73712015 -0.10260639 0.66792650
vn 0.67661692 0.27068307 -0.68477749
vn -0.70578271 -1.3261453e-2 -0.70830425
vn -0.72927473 0.23676523 0.64195061
vn 0.72927473 0.23676523 0.64195061
vn 0.72927473 0.23676523 -0.64195061
vn -0.72927473 0.23676523 -0.64195061
vn -0.48231944 0.79549764 0.36681257
vn 0.48231944 0.79549764 0.36681257
vn 0.48231944 0.79549764 -0.36681257
vn -0.48231944 0.79549764 -0.36681257
vn -0.51357566 -0.83376443 -0.20267441
vn 0.51357566 -0.83376443 -0.20267441
vn 0.51357566 -0.14375447 -0.84591648
vn -0.51357566 -0.14375447 -0.84591648
g cube11_copy13_default
usemtl default
f 521//521 524//524 523//523 522//522
f 521//521 541//541 542//542 524//524
f 522//522 526//526 525//525 521//521
f 522//522 529//529 532//532 526//526
f 523//523 530//530 529//529 522//522
f 524//524 528//528 527//527 523//523
f 524//524 542//542 543//543 528//528
f 525//525 544//544 541//541 521//521
f 526//526 527//527 528//528 525//525
f 526//526 532//532 531//531 527//527
f 527//527 531//531 530//530 523//523
f 528//528 543//543 544//544 525//525
f 529//529 533//533 536//536 532//532
f 530//530 534//534 533//533 529//529
f 531//531 535//535 534//534 530//530
f 532//532 536//536 535//535 531//531
f 533//533 537//537 540//540 536//536
f 534//534 538//538 537//537 533//533
f 535//535 539//539 538//538 534//534
f 536//536 540//540 539//539 535//535
f 538//538 539//539 540//540 537//537
f 541//541 544//544 543//543 542//542
o cube11_copy20
#24 vertices, 22 faces
v -1.09631518 -1.16865383 -0.52485002
v -1.09631518 -0.16749309 0.68274076
v -1.40059028 -0.16749309 0.68274076
v -1.40059028 -1.16865383 -0.52485002
v -1.09631518 -0.80941644 -0.85973881
v -1.09631518 -0.20578135 -0.14968605
v -1.40059028 -0.20578135 -0.14968605
v -1.40059028 -0.80941644 -0.85973881
v -0.88303474 0.30658201 1.10822228
v -1.18730984 0.30658201 1.10822228
v -1.18730984 0.30658201 5.1336890e-2
v -0.88303474 0.30658201 5.1336890e-2
v -0.88303474 0.62282542 1.10822228
v -1.18730984 0.62282542 1.10822228
v -1.18730984 0.62282542 5.1336890e-2
v -0.88303474 0.62282542 5.1336890e-2
v -0.88303474 0.87287835 0.89473143
v -1.18730984 0.87287835 0.89473143
v -1.18730984 0.87287835 0.26482774
v -0.88303474 0.87287835 0.26482774
v -1.09631518 -1.22885905 -0.69314784
v -1.40059028 -1.22885905 -0.69314784
v -1.40059028 -0.97308203 -0.93158866
v -1.09631518 -0.97308203 -0.93158866
vn 0.71248587 -0.60967586 0.34736038
vn 0.63912452 -0.61346362 0.46387739
vn -0.74386434 -0.40243550 0.53358365
vn -0.71248587 -0.60967586 0.34736038
vn 0.71617619 0.41676654 -0.55981900
vn 0.74217866 0.28118939 -0.60836121
vn -0.65621591 0.52347235 -0.54346792
vn -0.71617619 0.41676654 -0.55981900
vn 0.68232174 -0.38076444 0.62406369
vn -0.73712015 -0.10260639 0.66792650
vn -0.67661692 0.27068307 -0.68477749
vn 0.70578271 -1.3261453e-2 -0.70830425
vn 0.72927473 0.23676523 0.64195061
vn -0.72927473 0.23676523 0.64195061
vn -0.72927473 0.23676523 -0.64195061
vn 0.72927473 0.23676523 -0.64195061
vn 0.48231944 0.79549764 0.36681257
vn -0.48231944 0.79549764 0.36681257
vn -0.48231944 0.79549764 -0.36681257
vn 0.48231944 0.79549764 -0.36681257
vn 0.51357566 -0.83376443 -0.20267441
vn -0.51357566 -0.83376443 -0.20267441
vn -0.51357566 -0.14375447 -0.84591648
vn 0.51357566 -0.14375447 -0.84591648
g cube11_copy20_default
usemtl default
f 545//545 549//549 550//550 546//546
f 545//545 565//565 568//568 549//549
f 546//546 547//547 548//548 545//545
f 546//546 553//553 554//554 547//547
f 547//547 551//551 552//552 548//548
f 547//547 554//554 555//555 551//551
f 548//548 566//566 565//565 545//545
f 549//549 552//552 551//551 550//550
f 549//549 568//568 567//567 552//552
f 550//550 556//556 553//553 546//546
f 551//551 555//555 556//556 550//550
f 552//552 567//567 566//566 548//548
f 553//553 557//557 558//558 554//554
f 554//554 558//558 559//559 555//555
f 555//555 559//559 560//560 556//556
f 556//556 560//560 557//557 553//553
f 557//557 561//561 562//562 558//558
f 558//558 562//562 563//563 559//559
f 559//559 563//563 564//564 560//560
f 560//560 564//564 561//561 557//557
f 561//561 564//564 563//563 562//562
f 566//566 567//567 568//568 565//565
o cube9
#36 vertices, 34 faces
v 1.83684770 1.27008413 4.8135204e-2
v 1.91642244 1.68661321 -4.0118771e-2
v 2.39701190 1.68661321 -4.0118771e-2
v 2.48240918 1.27008413 4.8135204e-2
v 1.79324590 1.27008413 -0.87748572
v 1.87282065 1.68661321 -0.82368024
v 2.43400736 1.68661321 -0.82368024
v 2.51940465 1.27008413 -0.87748572
v 2.51940465 1.27008413 -0.67089253
v 1.79324590 1.27008413 -0.67089253
v 1.87282065 0.96119522 -0.58701929
v 2.43400736 0.96119522 -0.58701929
v 2.39701190 0.96119522 4.8135204e-2
v 1.91642244 0.96119522 4.8135204e-2
v 2.43400736 1.68661321 -0.62219054
v 1.87282065 1.68661321 -0.62219054
v 2.15341400 1.68661321 -0.53695299
v 2.15341400 0.96119522 4.8135204e-2
v 2.15341400 0.96119522 -0.68259703
v 2.15632527 1.27008413 -0.76647027
v 2.15341400 1.68661321 -0.91925798
v 2.15632527 1.27008413 -0.97306345
v 2.15341400 1.68661321 -4.0118771e-2
v 2.15632527 1.27008413 4.8135204e-2
v 2.15341400 1.68661321 -0.28524866
v 2.15341400 0.96119522 -0.16596934
v 1.87282065 0.96119522 -0.13796506
v 2.43400736 0.96119522 -0.13796506
v 2.51940465 1.27008413 -0.16253992
v 2.43400736 1.68661321 -0.21066580
v 1.87282065 1.68661321 -0.21066580
v 1.79324590 1.27008413 -0.16253992
v 1.69687854 2.11782726 -0.21066580
v 1.69687854 2.53374801 -0.28524866
v 1.69687854 2.53374801 -0.53695299
v 1.69687854 2.11782726 -0.62219054
vn -0.61892772 6.1383919e-2 0.78304565
vn -0.45540798 0.68188281 0.57239795
vn 0.45981278 0.68943988 0.55968281
vn 0.63037974 5.8854208e-2 0.77405269
vn -0.73745897 -0.38745869 -0.55319981
vn -0.61081133 0.64572904 -0.45819595
vn 0.60679888 0.65110093 -0.45591962
vn 0.73967781 -0.37948550 -0.55575848
vn 0.90808442 -0.32763511 -0.26084078
vn -0.90810531 -0.32792601 -0.26040215
vn -0.57042199 -0.70440240 -0.42241686
vn 0.56503805 -0.71046795 -0.41948456
vn 0.48336171 -0.63864915 0.59873928
vn -0.48121728 -0.62681115 0.61281131
vn 0.63212200 0.77486887 5.9603612e-16
vn -0.86506694 0.39105157 -0.31422580
vn 0.30608187 0.92223185 -0.23622509
vn 0.0000000e+0 -0.70710678 0.70710678
vn -1.2688474e-4 -0.81368952 -0.58129970
vn -1.2688474e-4 -0.81368952 -0.58129970
vn -5.5831151e-5 0.77178820 -0.63587968
vn -6.5373610e-5 -0.66755337 -0.74456195
vn -1.6277577e-16 0.77694206 0.62957211
vn -6.8296264e-19 0.10420629 0.99455570
vn 0.29870193 0.92329706 0.24145328
vn 0.0000000e+0 -1.00000000 0.0000000e+0
vn -0.60944448 -0.79005198 6.6297013e-2
vn 0.60361201 -0.79531718 5.5884955e-2
vn 0.99528947 -2.4533571e-2 9.3792148e-2
vn 0.62240460 0.78041787 5.9669581e-2
vn -0.84131974 0.38336975 0.38106264
vn -0.99371596 -2.0798857e-2 0.10998184
vn -0.85904864 -0.12300445 0.49689571
vn 0.14916471 0.54072458 0.82786884
vn 0.18031511 0.55465282 -0.81230949
vn -0.85833828 -0.11606202 -0.49978497
g cube9_default
usemtl default
f 569//569 582//582 586//586 592//592
f 569//569 592//592 591//591 570//570
f 570//570 599//599 600//600 569//569
f 571//571 591//591 592//592 572//572
f 572//572 581//581 596//596 597//597
f 572//572 592//592 586//586 581//581
f 572//572 597//597 598//598 571//571
f 573//573 578//578 584//584 574//574
f 574//574 584//584 585//585 589//589
f 574//574 589//589 590//590 573//573
f 575//575 583//583 577//577 576//576
f 575//575 589//589 585//585 583//583
f 576//576 590//590 589//589 575//575
f 577//577 580//580 587//587 588//588
f 577//577 588//588 590//590 576//576
f 577//577 597//597 596//596 580//580
f 578//578 588//588 587//587 579//579
f 578//578 600//600 599//599 584//584
f 579//579 587//587 594//594 595//595
f 579//579 595//595 600//600 578//578
f 580//580 596//596 594//594 587//587
f 581//581 586//586 594//594 596//596
f 582//582 595//595 594//594 586//586
f 583//583 598//598 597//597 577//577
f 584//584 604//604 603//603 585//585
f 585//585 593//593 598//598 583//583
f 585//585 603//603 602//602 593//593
f 590//590 588//588 578//578 573//573
f 591//591 593//593 599//599 570//570
f 593//593 602//602 601//601 599//599
f 598//598 593//593 591//591 571//571
f 599//599 601//601 604//604 584//584
f 600//600 595//595 582//582 569//569
f 602//602 603//603 604//604 601//601
o cube5
#64 vertices, 62 faces
v 0.75874621 0.71562608 1.69942088
v 0.75874621 0.51992957 1.69942088
v 0.75874621 0.71562608 -0.17384473
v 0.75874621 0.51992957 -0.17384473
v 0.75874621 0.30419763 1.29002050
v 0.75874621 0.30419763 -7.5440288e-2
v 0.30845629 0.51992957 1.97079373
v 0.30845629 0.71562608 1.97079373
v 0.30845629 0.51992957 -0.43470666
v 0.30845629 0.71562608 -0.43470666
v 0.30845629 0.30419763 1.56139334
v 0.30845629 0.30419763 -0.33630221
v 0.75874621 0.71562608 0.89390453
v 0.75874621 0.71562608 0.26717646
v 0.75874621 0.51992957 0.89390453
v 0.75874621 0.51992957 0.26717646
v 0.75874621 0.30419763 0.89390453
v 0.75874621 0.30419763 0.26717646
v 0.30845629 0.30419763 0.89390453
v 0.30845629 0.30419763 0.26717646
v 0.30845629 0.71562608 -0.17688725
v 0.30845629 0.71562608 1.34055263
v 0.30845629 0.93552317 1.34055263
v 0.75874621 0.93552317 0.89390453
v 0.75874621 0.93552317 0.26717646
v 0.30845629 0.93552317 -0.17688725
v 0.88058664 0.51992957 0.89390453
v 0.88058664 0.51992957 0.26717646
v 0.88058664 0.71562608 0.26717646
v 0.88058664 0.71562608 0.89390453
v 0.88058664 0.30419763 0.89390453
v 0.88058664 0.30419763 0.26717646
v -0.76794256 0.71562608 1.69942088
v -0.76794256 0.51992957 1.69942088
v -0.76794256 0.71562608 -0.17384473
v -0.76794256 0.51992957 -0.17384473
v -0.76794256 0.30419763 1.29002050
v -0.76794256 0.30419763 -7.5440288e-2
v -0.31765265 0.51992957 1.97079373
v -0.31765265 0.71562608 1.97079373
v -0.31765265 0.51992957 -0.43470666
v -0.31765265 0.71562608 -0.43470666
v -0.31765265 0.30419763 1.56139334
v -0.31765265 0.30419763 -0.33630221
v -0.76794256 0.71562608 0.89390453
v -0.76794256 0.71562608 0.26717646
v -0.76794256 0.51992957 0.89390453
v -0.76794256 0.51992957 0.26717646
v -0.76794256 0.30419763 0.89390453
v -0.76794256 0.30419763 0.26717646
v -0.31765265 0.30419763 0.89390453
v -0.31765265 0.30419763 0.26717646
v -0.31765265 0.71562608 -0.17688725
v -0.31765265 0.71562608 1.34055263
v -0.31765265 0.93552317 1.34055263
v -0.76794256 0.93552317 0.89390453
v -0.76794256 0.93552317 0.26717646
v -0.31765265 0.93552317 -0.17688725
v -0.88978299 0.51992957 0.89390453
v -0.88978299 0.51992957 0.26717646
v -0.88978299 0.71562608 0.26717646
v -0.88978299 0.71562608 0.89390453
v -0.88978299 0.30419763 0.89390453
v -0.88978299 0.30419763 0.26717646
vn 0.75503937 0.49799074 0.42652171
vn 0.87276425 -0.26675183 0.40881051
vn 0.75039919 0.49984036 -0.43250510
vn 0.86644127 -0.10719216 -0.48763652
vn 0.55477932 -0.80858624 0.19598010
vn 0.67874209 -0.63284937 -0.37257328
vn 0.23385943 -0.51620602 0.82391814
vn 0.18585883 0.72014369 0.66846807
vn 0.25529074 -0.20636925 -0.94458370
vn 0.18029037 0.71932334 -0.67087205
vn 7.0139461e-2 -0.96890803 0.23727132
vn 0.14124403 -0.84276911 -0.51941347
vn 0.71669843 0.53005732 0.45319158
vn 0.71625665 0.53013498 -0.45379877
vn 0.70710678 0.0000000e+0 0.70710678
vn 0.70710678 0.0000000e+0 -0.70710678
vn 0.30151134 -0.90453403 0.30151134
vn 0.30151134 -0.90453403 -0.30151134
vn 4.8774899e-17 -1.00000000 0.0000000e+0
vn 5.4412155e-17 -1.00000000 0.0000000e+0
vn 0.25770378 0.73402407 -0.62832907
vn 0.25853191 0.73422587 0.62775283
vn 0.25853191 0.73422587 0.62775283
vn 0.81167981 0.47627365 0.33814095
vn 0.81107696 0.47649666 -0.33927143
vn 0.25770378 0.73402407 -0.62832907
vn 0.70710678 0.0000000e+0 0.70710678
vn 0.70710678 0.0000000e+0 -0.70710678
vn 0.57735027 0.57735027 -0.57735027
vn 0.57735027 0.57735027 0.57735027
vn 0.57735027 -0.57735027 0.57735027
vn 0.57735027 -0.57735027 -0.57735027
vn -0.75503937 0.49799074 0.42652171
vn -0.87276425 -0.26675183 0.40881051
vn -0.75039919 0.49984036 -0.43250510
vn -0.86644127 -0.10719216 -0.48763652
vn -0.55477932 -0.80858624 0.19598010
vn -0.67874209 -0.63284937 -0.37257328
vn -0.23385943 -0.51620602 0.82391814
vn -0.18585883 0.72014369 0.66846807
vn -0.25529074 -0.20636925 -0.94458370
vn -0.18029037 0.71932334 -0.67087205
vn -7.0139461e-2 -0.96890803 0.23727132
vn -0.14124403 -0.84276911 -0.51941347
vn -0.71669843 0.53005732 0.45319158
vn -0.71625665 0.53013498 -0.45379877
vn -0.70710678 0.0000000e+0 0.70710678
vn -0.70710678 0.0000000e+0 -0.70710678
vn -0.30151134 -0.90453403 0.30151134
vn -0.30151134 -0.90453403 -0.30151134
vn 1.8773556e-16 -1.00000000 -1.1893681e-32
vn 1.8518281e-16 -1.00000000 -9.0762020e-33
vn -0.25770378 0.73402407 -0.62832907
vn -0.25853191 0.73422587 0.62775283
vn -0.25853191 0.73422587 0.62775283
vn -0.81167981 0.47627365 0.33814095
vn -0.81107696 0.47649666 -0.33927143
vn -0.25770378 0.73402407 -0.62832907
vn -0.70710678 0.0000000e+0 0.70710678
vn -0.70710678 0.0000000e+0 -0.70710678
vn -0.57735027 0.57735027 -0.57735027
vn -0.57735027 0.57735027 0.57735027
vn -0.57735027 -0.57735027 0.57735027
vn -0.57735027 -0.57735027 -0.57735027
g cube5_default
usemtl default
f 605//605 612//612 611//611 606//606
f 606//606 609//609 621//621 619//619
f 606//606 611//611 615//615 609//609
f 606//606 619//619 617//617 605//605
f 607//607 618//618 620//620 608//608
f 608//608 613//613 614//614 607//607
f 608//608 620//620 622//622 610//610
f 609//609 615//615 623//623 621//621
f 610//610 622//622 624//624 616//616
f 611//611 643//643 647//647 615//615
f 612//612 644//644 643//643 611//611
f 613//613 645//645 646//646 614//614
f 614//614 625//625 618//618 607//607
f 614//614 646//646 657//657 625//625
f 615//615 647//647 655//655 623//623
f 616//616 613//613 608//608 610//610
f 616//616 648//648 645//645 613//613
f 617//617 626//626 612//612 605//605
f 617//617 628//628 627//627 626//626
f 617//617 634//634 633//633 618//618
f 618//618 629//629 628//628 617//617
f 618//618 633//633 632//632 620//620
f 619//619 621//621 635//635 631//631
f 620//620 632//632 636//636 622//622
f 621//621 623//623 624//624 622//622
f 622//622 636//636 635//635 621//621
f 623//623 655//655 656//656 624//624
f 624//624 656//656 648//648 616//616
f 625//625 630//630 629//629 618//618
f 626//626 658//658 644//644 612//612
f 627//627 659//659 658//658 626//626
f 628//628 629//629 630//630 627//627
f 630//630 662//662 659//659 627//627
f 631//631 634//634 617//617 619//619
f 631//631 635//635 636//636 632//632
f 632//632 633//633 634//634 631//631
f 637//637 644//644 658//658 649//649
f 637//637 649//649 651//651 638//638
f 638//638 643//643 644//644 637//637
f 639//639 646//646 645//645 640//640
f 639//639 650//650 657//657 646//646
f 640//640 652//652 650//650 639//639
f 641//641 647//647 643//643 638//638
f 642//642 640//640 645//645 648//648
f 642//642 654//654 652//652 640//640
f 648//648 656//656 654//654 642//642
f 649//649 660//660 661//661 650//650
f 650//650 661//661 662//662 657//657
f 650//650 665//665 666//666 649//649
f 651//651 649//649 666//666 663//663
f 651//651 653//653 641//641 638//638
f 652//652 664//664 665//665 650//650
f 653//653 655//655 647//647 641//641
f 653//653 667//667 668//668 654//654
f 654//654 656//656 655//655 653//653
f 654//654 668//668 664//664 652//652
f 657//657 662//662 630//630 625//625
f 658//658 659//659 660//660 649//649
f 659//659 662//662 661//661 660//660
f 663//663 666//666 665//665 664//664
f 663//663 667//667 653//653 651//651
f 664//664 668//668 667//667 663//663
o cube4
#174 vertices, 170 faces
v 0.56186455 2.83904791 1.20592594
v 0.39246256 3.34853633 0.45086416
v 0.55424813 2.83904791 -1.81389777
v 0.38484614 3.34853633 -1.08580248
v 0.56186455 2.07418013 2.17917117
v 0.55424813 2.07418013 -1.81389777
v 0.51561279 1.62065276 2.38509711
v 0.38484614 1.62065276 -1.19366845
v 0.38484614 1.35343933 -1.19366845
v 0.40786802 0.93913595 2.22084665
v 0.27710137 0.93913595 -0.59305112
v 0.51561279 1.35343933 2.57478982
v 0.40786802 0.93913595 2.41053937
v 0.51561279 1.58362669 2.57478982
v 0.47217286 1.16732209 -1.41423718
v 0.36442809 0.66684360 -0.68869145
v 0.51561279 1.35343933 2.39601094
v 0.38038551 0.93913595 -0.30769485
v 0.50047281 1.35343933 -0.44232004
v 0.50047281 1.62065276 -0.44460439
v 0.68501478 2.07418013 -0.91322501
v 0.51561279 3.34853633 -0.55613278
v 0.68501478 2.83904791 -0.91322501
v 0.68501478 2.07624222 0.57631911
v 0.50374425 1.62065276 0.32263508
v 0.50250890 1.35343933 -9.8566424e-2
v 0.38075609 0.93913595 -0.23635149
v 0.51561279 3.34853633 -0.20217753
v 0.68501478 2.83582610 0.17151196
v 0.79591819 3.22148180 -0.63760154
v 0.79591819 3.60349226 -0.78224000
v 1.53584755 3.60349226 -0.78224000
v 1.53584755 3.22148180 -0.63760154
v 0.79591819 3.22148180 -1.80409177
v 0.79591819 3.60349226 -1.80409177
v 1.53584755 3.60349226 -1.80409177
v 1.53584755 3.22148180 -1.80409177
v 1.53584755 2.83342738 0.17139323
v 0.79591819 2.83400724 0.17248129
v 0.79591819 2.83342738 -1.80409177
v 1.53584755 2.83342738 -1.80409177
v 0.79591819 2.55467399 -1.47068787
v 1.53584755 2.55467399 -1.47068787
v 1.53584755 2.07442476 0.57589062
v 0.79591819 2.07500462 0.57697867
v 0.79591819 2.07442476 -1.47068787
v 1.53584755 2.07442476 -1.47068787
v 1.53584755 1.68194024 0.35525568
v 0.79591819 1.68194024 0.35525568
v 0.79591819 1.68194024 -1.08335098
v 1.53584755 1.68194024 -1.08335098
v 1.53584755 1.68194024 -0.56752209
v 0.79591819 1.68194024 -0.56752209
v 0.79591819 1.41472682 -0.56752209
v 1.53584755 1.41472682 -0.56752209
v 1.53584755 1.41472682 0.18365073
v 0.79591819 1.41472682 0.18365073
v 1.53584755 2.83342738 -0.63141481
v 2.03228275 3.22148180 -0.78455127
v 2.03228275 3.22148180 -1.53023091
v 2.03228275 3.44947742 -1.53023091
v 2.03228275 3.44947742 -0.86640211
v 2.03228275 2.98247576 -0.77760341
v 2.03228275 2.98247576 -1.53023091
v 0.79591819 3.21590334 -0.52515126
v 1.53584755 3.21590334 -0.52515126
v 1.53584755 2.07442476 -0.70948468
v 1.53584755 2.55467399 -0.63141481
v 0.79591819 2.07442476 -0.91322501
v 0.79591819 2.55467399 -0.91322501
v 0.79591819 2.83342738 -0.91322501
v 1.53584755 2.07442476 -6.6797028e-2
v 1.53584755 2.55345441 -0.16980620
v 1.69773398 2.07442476 -0.70948468
v 1.69773398 2.55467399 -0.63141481
v 1.69773398 2.55345441 -0.16980620
v 1.69773398 2.07442476 -6.6797028e-2
v 0.39892124 0.93913595 1.42185418
v 0.50946992 1.35343933 1.24439216
v 0.51105332 1.62065276 1.53292110
v 0.68501478 2.07504099 1.51003017
v 0.51561279 3.34853633 0.23078911
v 0.68501478 2.83796216 0.85732843
v 0.77406881 1.04099570 0.91497561
v 0.77406881 0.93913595 0.91497561
v 0.77406881 0.93913595 0.24425065
v 0.77406881 1.04099570 0.24425065
v -0.57415038 2.83904791 1.20592594
v -0.40474839 3.34853633 0.45086416
v -0.56653397 2.83904791 -1.81389777
v -0.39713198 3.34853633 -1.08580248
v -0.57415038 2.07418013 2.17917117
v -0.56653397 2.07418013 -1.81389777
v -0.52789863 1.62065276 2.38509711
v -0.39713198 1.62065276 -1.19366845
v -0.39713198 1.35343933 -1.19366845
v -0.42015386 0.93913595 2.22084665
v -0.28938721 0.93913595 -0.59305112
v -0.52789863 1.35343933 2.57478982
v -0.42015386 0.93913595 2.41053937
v -0.52789863 1.58362669 2.57478982
v -0.48445870 1.16732209 -1.41423718
v -0.37671393 0.66684360 -0.68869145
v -0.52789863 1.35343933 2.39601094
v -0.39267134 0.93913595 -0.30769485
v -0.51275864 1.35343933 -0.44232004
v -0.51275864 1.62065276 -0.44460439
v -0.69730062 2.07418013 -0.91322501
v -0.52789863 3.34853633 -0.55613278
v -0.69730062 2.83904791 -0.91322501
v -0.69730062 2.07624222 0.57631911
v -0.51603009 1.62065276 0.32263508
v -0.51479474 1.35343933 -9.8566424e-2
v -0.39304193 0.93913595 -0.23635149
v -0.52789863 3.34853633 -0.20217753
v -0.69730062 2.83582610 0.17151196
v -0.80820403 3.22148180 -0.63760154
v -0.80820403 3.60349226 -0.78224000
v -1.54813338 3.60349226 -0.78224000
v -1.54813338 3.22148180 -0.63760154
v -0.80820403 3.22148180 -1.80409177
v -0.80820403 3.60349226 -1.80409177
v -1.54813338 3.60349226 -1.80409177
v -1.54813338 3.22148180 -1.80409177
v -1.54813338 2.83342738 0.17139323
v -0.80820403 2.83400724 0.17248129
v -0.80820403 2.83342738 -1.80409177
v -1.54813338 2.83342738 -1.80409177
v -0.80820403 2.55467399 -1.47068787
v -1.54813338 2.55467399 -1.47068787
v -1.54813338 2.07442476 0.57589062
v -0.80820403 2.07500462 0.57697867
v -0.80820403 2.07442476 -1.47068787
v -1.54813338 2.07442476 -1.47068787
v -1.54813338 1.68194024 0.35525568
v -0.80820403 1.68194024 0.35525568
v -0.80820403 1.68194024 -1.08335098
v -1.54813338 1.68194024 -1.08335098
v -1.54813338 1.68194024 -0.56752209
v -0.80820403 1.68194024 -0.56752209
v -0.80820403 1.41472682 -0.56752209
v -1.54813338 1.41472682 -0.56752209
v -1.54813338 1.41472682 0.18365073
v -0.80820403 1.41472682 0.18365073
v -1.54813338 2.83342738 -0.63141481
v -2.04456858 3.22148180 -0.78455127
v -2.04456858 3.22148180 -1.53023091
v -2.04456858 3.44947742 -1.53023091
v -2.04456858 3.44947742 -0.86640211
v -2.04456858 2.98247576 -0.77760341
v -2.04456858 2.98247576 -1.53023091
v -0.80820403 3.21590334 -0.52515126
v -1.54813338 3.21590334 -0.52515126
v -1.54813338 2.07442476 -0.70948468
v -1.54813338 2.55467399 -0.63141481
v -0.80820403 2.07442476 -0.91322501
v -0.80820403 2.55467399 -0.91322501
v -0.80820403 2.83342738 -0.91322501
v -1.54813338 2.07442476 -6.6797028e-2
v -1.54813338 2.55345441 -0.16980620
v -1.71001981 2.07442476 -0.70948468
v -1.71001981 2.55467399 -0.63141481
v -1.71001981 2.55345441 -0.16980620
v -1.71001981 2.07442476 -6.6797028e-2
v -0.41120708 0.93913595 1.42185418
v -0.52175576 1.35343933 1.24439216
v -0.52333916 1.62065276 1.53292110
v -0.69730062 2.07504099 1.51003017
v -0.52789863 3.34853633 0.23078911
v -0.69730062 2.83796216 0.85732843
v -0.78635465 1.04099570 0.91497561
v -0.78635465 0.93913595 0.91497561
v -0.78635465 0.93913595 0.24425065
v -0.78635465 1.04099570 0.24425065
vn 0.47728670 0.72568572 0.49555792
vn 0.25911541 0.91197415 0.31806030
vn 0.63413133 0.43562438 -0.63883398
vn 0.34259318 0.89438913 -0.28757260
vn 0.65603618 0.41958580 0.62734702
vn 0.63198143 -0.44307711 -0.63583185
vn 0.87289505 0.34577178 0.34423264
vn 0.63046846 -0.44254747 -0.63769997
vn 0.84467472 0.15658611 -0.51186463
vn 0.61104505 -0.79159230 -2.3624599e-3
vn 0.69953756 -0.59796027 0.39126810
vn 0.69658094 -0.21955567 0.68305951
vn 0.46002779 -0.77014548 0.44187144
vn 0.54367511 0.53360521 0.64782935
vn 0.70700034 8.4837042e-2 -0.70210626
vn 0.62671860 -0.65028507 0.42936363
vn 0.99180677 -0.12770621 -3.2317743e-3
vn 0.56562771 -0.82253232 -5.9210525e-2
vn 0.98021022 -0.17653074 -8.9581377e-2
vn 0.97219899 -0.22221822 -7.3811870e-2
vn 0.77572409 -0.52122382 -0.35577783
vn 0.54831251 0.83490478 -4.7826748e-2
vn 0.79105930 0.49328816 -0.36178996
vn 0.87995528 -0.39022859 0.27092500
vn 0.98243946 -0.18654384 -3.7545868e-3
vn 0.98660218 7.9085387e-2 -0.14269420
vn 0.45934621 -0.87210424 -0.16862757
vn 0.58557394 0.81061900 3.2527446e-5
vn 0.78986174 0.56518802 0.23807757
vn -0.87333409 0.39383440 0.28667409
vn -0.51930106 0.70318209 0.48565560
vn 0.17093221 0.80886135 0.56260599
vn 0.42123162 0.46650623 0.77777623
vn -0.70710678 0.0000000e+0 -0.70710678
vn -0.57735027 0.57735027 -0.57735027
vn 0.27644441 0.69350247 -0.66530656
vn 0.24939591 0.0000000e+0 -0.96840161
vn 0.84289856 0.37821166 0.38272439
vn -0.25847268 0.75519295 0.60239146
vn -0.74110390 -0.28428107 -0.60823456
vn 0.50188557 -0.48894837 -0.71347065
vn -0.74110390 -0.28428107 -0.60823456
vn 0.74110390 -0.28428107 -0.60823456
vn 0.75218353 -7.6487113e-3 0.65890928
vn -0.34871973 -0.19135570 0.91748436
vn -0.73404911 -0.25780680 -0.62825755
vn 0.73404911 -0.25780680 -0.62825755
vn 0.70733478 -0.36456299 0.60561649
vn -0.70717628 -0.36464477 0.60575234
vn -0.47646889 -0.81115200 -0.33913098
vn 0.47646889 -0.81115200 -0.33913098
vn 0.90453403 -0.30151134 -0.30151134
vn -0.90453403 -0.30151134 -0.30151134
vn -0.57735027 -0.57735027 -0.57735027
vn 0.57735027 -0.57735027 -0.57735027
vn 0.49502920 -0.76252683 0.41653202
vn -0.49502920 -0.76252683 0.41653202
vn 0.93600378 -0.24598763 0.25176775
vn 0.80140563 0.11217698 0.58750774
vn 0.86111288 0.0000000e+0 -0.50841381
vn 0.80837908 0.43391167 -0.39779885
vn 0.70318323 0.58229173 0.40800697
vn 0.75977717 -0.45437979 0.46505662
vn 0.80656642 -0.43629596 -0.39886896
vn -0.45622142 0.85629983 0.24210044
vn 0.45672519 0.85605112 0.24203013
vn 0.91802419 -0.25690758 -0.30204317
vn 0.89182712 0.34497401 -0.29263855
vn -0.90485273 -0.30116476 -0.30090087
vn -0.89442719 0.0000000e+0 -0.44721360
vn -0.90281987 0.30416881 -0.30396977
vn 0.84670263 -0.33434957 0.41389011
vn 0.78899133 0.47742967 0.38672160
vn 0.61095093 -0.51292087 -0.60303494
vn 0.54917763 0.63729394 -0.54061110
vn 0.54029375 0.65387859 0.52964654
vn 0.62262866 -0.49173255 0.60871393
vn 0.47493535 -0.86553734 0.15900165
vn 0.98750775 9.4465379e-2 0.12611401
vn 0.98910618 -0.14637908 1.5560592e-2
vn 0.99318416 -8.7004053e-2 7.7559755e-2
vn 0.48572782 0.86957464 8.8929379e-2
vn 0.93935658 0.31366670 0.13864495
vn 0.94233320 0.25253038 0.21962821
vn 0.84563614 -0.45353991 0.28142685
vn 0.82960957 -0.47400015 -0.29507934
vn 0.94249753 0.23683534 -0.23581225
vn -0.47728670 0.72568572 0.49555792
vn -0.25911541 0.91197415 0.31806030
vn -0.63413133 0.43562438 -0.63883398
vn -0.34259318 0.89438913 -0.28757260
vn -0.65603618 0.41958580 0.62734702
vn -0.63198143 -0.44307711 -0.63583185
vn -0.87289505 0.34577178 0.34423264
vn -0.63046846 -0.44254747 -0.63769997
vn -0.84467472 0.15658611 -0.51186463
vn -0.61104505 -0.79159230 -2.3624599e-3
vn -0.69953756 -0.59796027 0.39126810
vn -0.69658094 -0.21955567 0.68305951
vn -0.46002779 -0.77014548 0.44187144
vn -0.54367511 0.53360521 0.64782935
vn -0.70700034 8.4837042e-2 -0.70210626
vn -0.62671860 -0.65028507 0.42936363
vn -0.99180677 -0.12770621 -3.2317743e-3
vn -0.56562771 -0.82253232 -5.9210525e-2
vn -0.98021022 -0.17653074 -8.9581377e-2
vn -0.97219899 -0.22221822 -7.3811870e-2
vn -0.77572409 -0.52122382 -0.35577783
vn -0.54831251 0.83490478 -4.7826748e-2
vn -0.79105930 0.49328816 -0.36178996
vn -0.87995528 -0.39022859 0.27092500
vn -0.98243946 -0.18654384 -3.7545868e-3
vn -0.98660218 7.9085387e-2 -0.14269420
vn -0.45934621 -0.87210424 -0.16862757
vn -0.58557394 0.81061900 3.2527446e-5
vn -0.78986174 0.56518802 0.23807757
vn 0.87333409 0.39383440 0.28667409
vn 0.51930106 0.70318209 0.48565560
vn -0.17093221 0.80886135 0.56260599
vn -0.42123162 0.46650623 0.77777623
vn 0.70710678 0.0000000e+0 -0.70710678
vn 0.57735027 0.57735027 -0.57735027
vn -0.27644441 0.69350247 -0.66530656
vn -0.24939591 0.0000000e+0 -0.96840161
vn -0.84289856 0.37821166 0.38272439
vn 0.25847268 0.75519295 0.60239146
vn 0.74110390 -0.28428107 -0.60823456
vn -0.50188557 -0.48894837 -0.71347065
vn 0.74110390 -0.28428107 -0.60823456
vn -0.74110390 -0.28428107 -0.60823456
vn -0.75218353 -7.6487113e-3 0.65890928
vn 0.34871973 -0.19135570 0.91748436
vn 0.73404911 -0.25780680 -0.62825755
vn -0.73404911 -0.25780680 -0.62825755
vn -0.70733478 -0.36456299 0.60561649
vn 0.70717628 -0.36464477 0.60575234
vn 0.47646889 -0.81115200 -0.33913098
vn -0.47646889 -0.81115200 -0.33913098
vn -0.90453403 -0.30151134 -0.30151134
vn 0.90453403 -0.30151134 -0.30151134
vn 0.57735027 -0.57735027 -0.57735027
vn -0.57735027 -0.57735027 -0.57735027
vn -0.49502920 -0.76252683 0.41653202
vn 0.49502920 -0.76252683 0.41653202
vn -0.93600378 -0.24598763 0.25176775
vn -0.80140563 0.11217698 0.58750774
vn -0.86111288 0.0000000e+0 -0.50841381
vn -0.80837908 0.43391167 -0.39779885
vn -0.70318323 0.58229173 0.40800697
vn -0.75977717 -0.45437979 0.46505662
vn -0.80656642 -0.43629596 -0.39886896
vn 0.45622142 0.85629983 0.24210044
vn -0.45672519 0.85605112 0.24203013
vn -0.91802419 -0.25690758 -0.30204317
vn -0.89182712 0.34497401 -0.29263855
vn 0.90485273 -0.30116476 -0.30090087
vn 0.89442719 0.0000000e+0 -0.44721360
vn 0.90281987 0.30416881 -0.30396977
vn -0.84670263 -0.33434957 0.41389011
vn -0.78899133 0.47742967 0.38672160
vn -0.61095093 -0.51292087 -0.60303494
vn -0.54917763 0.63729394 -0.54061110
vn -0.54029375 0.65387859 0.52964654
vn -0.62262866 -0.49173255 0.60871393
vn -0.47493535 -0.86553734 0.15900165
vn -0.98750775 9.4465379e-2 0.12611401
vn -0.98910618 -0.14637908 1.5560592e-2
vn -0.99318416 -8.7004053e-2 7.7559755e-2
vn -0.48572782 0.86957464 8.8929379e-2
vn -0.93935658 0.31366670 0.13864495
vn -0.94233320 0.25253038 0.21962821
vn -0.84563614 -0.45353991 0.28142685
vn -0.82960957 -0.47400015 -0.29507934
vn -0.94249753 0.23683534 -0.23581225
g cube4_default
usemtl default
f 669//669 751//751 750//750 670//670
f 669//669 756//756 760//760 673//673
f 670//670 750//750 837//837 757//757
f 670//670 757//757 756//756 669//669
f 671//671 674//674 761//761 758//758
f 671//671 758//758 759//759 672//672
f 672//672 690//690 691//691 671//671
f 673//673 749//749 751//751 669//669
f 673//673 760//760 762//762 675//675
f 674//674 671//671 691//691 689//689
f 675//675 748//748 749//749 673//673
f 675//675 762//762 769//769 682//682
f 676//676 763//763 761//761 674//674
f 677//677 764//764 763//763 676//676
f 678//678 685//685 680//680 681//681
f 678//678 746//746 747//747 685//685
f 678//678 765//765 833//833 746//746
f 679//679 684//684 683//683 677//677
f 680//680 767//767 768//768 681//681
f 681//681 768//768 765//765 678//678
f 682//682 680//680 685//685 675//675
f 682//682 769//769 767//767 680//680
f 683//683 770//770 764//764 677//677
f 684//684 679//679 766//766 771//771
f 685//685 747//747 748//748 675//675
f 686//686 687//687 694//694 695//695
f 686//686 773//773 766//766 679//679
f 687//687 686//686 679//679 677//677
f 687//687 688//688 693//693 694//694
f 688//688 687//687 677//677 676//676
f 688//688 689//689 692//692 693//693
f 689//689 688//688 676//676 674//674
f 689//689 737//737 713//713 692//692
f 690//690 696//696 697//697 691//691
f 691//691 739//739 738//738 737//737 689//689
f 692//692 713//713 707//707 697//697
f 692//692 749//749 748//748 693//693
f 693//693 748//748 747//747 694//694
f 694//694 755//755 754//754 695//695
f 695//695 754//754 753//753 746//746
f 695//695 782//782 773//773 686//686
f 696//696 783//783 837//837 750//750
f 697//697 696//696 750//750 751//751
f 697//697 707//707 739//739 691//691
f 698//698 701//701 700//700 699//699
f 698//698 733//733 734//734 701//701
f 698//698 739//739 707//707 733//733
f 699//699 703//703 702//702 698//698
f 700//700 704//704 703//703 699//699
f 700//700 730//730 729//729 704//704
f 701//701 726//726 731//731 727//727
f 701//701 727//727 730//730 700//700
f 702//702 708//708 739//739 698//698
f 703//703 704//704 705//705 702//702
f 704//704 729//729 728//728 705//705
f 705//705 709//709 708//708 702//702
f 705//705 728//728 732//732 709//709
f 706//706 734//734 733//733 707//707
f 706//706 741//741 736//736 726//726
f 707//707 713//713 712//712 706//706
f 708//708 710//710 738//738 739//739
f 709//709 711//711 710//710 708//708
f 709//709 726//726 736//736 711//711
f 709//709 732//732 731//731 726//726
f 710//710 714//714 737//737 738//738
f 711//711 715//715 714//714 710//710
f 711//711 736//736 735//735 715//715
f 712//712 716//716 720//720 735//735 740//740
f 712//712 740//740 741//741 706//706
f 713//713 717//717 716//716 712//712
f 713//713 737//737 721//721 717//717
f 714//714 718//718 721//721 737//737
f 715//715 719//719 718//718 714//714
f 715//715 735//735 720//720 719//719
f 716//716 724//724 723//723 720//720
f 717//717 725//725 724//724 716//716
f 718//718 719//719 720//720 721//721
f 720//720 723//723 722//722 721//721
f 721//721 722//722 725//725 717//717
f 723//723 724//724 725//725 722//722
f 727//727 731//731 732//732 728//728
f 728//728 729//729 730//730 727//727
f 734//734 706//706 726//726 701//701
f 735//735 742//742 745//745 740//740
f 736//736 743//743 742//742 735//735
f 740//740 745//745 744//744 741//741
f 741//741 744//744 743//743 736//736
f 743//743 744//744 745//745 742//742
f 746//746 753//753 752//752 747//747
f 746//746 833//833 782//782 695//695
f 747//747 752//752 755//755 694//694
f 751//751 749//749 692//692 697//697
f 753//753 754//754 755//755 752//752
f 756//756 838//838 836//836 760//760
f 757//757 837//837 838//838 756//756
f 758//758 778//778 777//777 759//759
f 759//759 777//777 690//690 672//672
f 760//760 836//836 835//835 762//762
f 761//761 763//763 775//775 776//776
f 762//762 772//772 767//767 769//769
f 762//762 835//835 834//834 772//772
f 763//763 764//764 774//774 775//775
f 764//764 766//766 773//773 774//774
f 764//764 770//770 771//771 766//766
f 768//768 767//767 772//772 765//765
f 771//771 770//770 683//683 684//684
f 772//772 834//834 833//833 765//765
f 776//776 778//778 758//758 761//761
f 776//776 824//824 825//825 826//826 778//778
f 777//777 783//783 696//696 690//690
f 778//778 784//784 783//783 777//777
f 778//778 826//826 794//794 784//784
f 779//779 800//800 824//824 776//776
f 780//780 779//779 776//776 775//775
f 780//780 835//835 836//836 779//779
f 781//781 780//780 775//775 774//774
f 781//781 834//834 835//835 780//780
f 781//781 842//842 839//839 834//834
f 782//782 781//781 774//774 773//773
f 782//782 841//841 842//842 781//781
f 784//784 779//779 836//836 838//838
f 784//784 794//794 800//800 779//779
f 785//785 789//789 790//790 786//786
f 785//785 826//826 795//795 789//789
f 786//786 787//787 788//788 785//785
f 786//786 790//790 791//791 787//787
f 787//787 817//817 814//814 788//788
f 788//788 813//813 793//793 821//821
f 788//788 821//821 820//820 785//785
f 789//789 792//792 791//791 790//790
f 789//789 795//795 796//796 792//792
f 791//791 816//816 817//817 787//787
f 792//792 815//815 816//816 791//791
f 793//793 799//799 800//800 794//794
f 793//793 828//828 827//827 799//799
f 794//794 820//820 821//821 793//793
f 795//795 797//797 798//798 796//796
f 796//796 819//819 815//815 792//792
f 797//797 801//801 802//802 798//798
f 798//798 823//823 813//813 796//796
f 799//799 803//803 804//804 800//800
f 801//801 805//805 806//806 802//802
f 802//802 822//822 823//823 798//798
f 803//803 811//811 812//812 804//804
f 804//804 808//808 824//824 800//800
f 804//804 812//812 809//809 808//808
f 806//806 807//807 822//822 802//802
f 807//807 810//810 811//811 803//803
f 808//808 807//807 806//806 805//805
f 808//808 809//809 810//810 807//807
f 809//809 812//812 811//811 810//810
f 813//813 818//818 819//819 796//796
f 813//813 823//823 828//828 793//793
f 814//814 817//817 816//816 815//815
f 814//814 818//818 813//813 788//788
f 815//815 819//819 818//818 814//814
f 820//820 794//794 826//826 785//785
f 822//822 829//829 830//830 823//823
f 823//823 830//830 831//831 828//828
f 824//824 808//808 805//805 801//801
f 825//825 824//824 801//801 797//797
f 826//826 825//825 797//797 795//795
f 827//827 822//822 807//807 803//803 799//799
f 827//827 832//832 829//829 822//822
f 828//828 831//831 832//832 827//827
f 829//829 832//832 831//831 830//830
f 833//833 840//840 841//841 782//782
f 834//834 839//839 840//840 833//833
f 838//838 837//837 783//783 784//784
f 839//839 842//842 841//841 840//840
